<?xml version="1.0" encoding="UTF-8" standalone="no"?>
<!-- Created with Inkscape (http://www.inkscape.org/) --><svg height="128" id="svg2606" inkscape:export-filename="/home/ehamberg/Projects/application-x-blender.png" inkscape:export-xdpi="230.39999" inkscape:export-ydpi="230.39999" inkscape:output_extension="org.inkscape.output.svgz.inkscape" inkscape:version="0.46" sodipodi:docbase="/home/david/sandbox" sodipodi:docname="application-x-blender.svgz" sodipodi:version="0.32" version="1.0" width="128" xmlns="http://www.w3.org/2000/svg" xmlns:cc="http://creativecommons.org/ns#" xmlns:dc="http://purl.org/dc/elements/1.1/" xmlns:inkscape="http://www.inkscape.org/namespaces/inkscape" xmlns:rdf="http://www.w3.org/1999/02/22-rdf-syntax-ns#" xmlns:sodipodi="http://sodipodi.sourceforge.net/DTD/sodipodi-0.dtd" xmlns:svg="http://www.w3.org/2000/svg" xmlns:xlink="http://www.w3.org/1999/xlink">
  <metadata>
    <rdf:RDF xmlns:cc="http://web.resource.org/cc/" xmlns:dc="http://purl.org/dc/elements/1.1/" xmlns:rdf="http://www.w3.org/1999/02/22-rdf-syntax-ns#">
      <cc:Work rdf:about="">
        <dc:title></dc:title>
        <dc:description></dc:description>
        <dc:subject>
          <rdf:Bag>
            <rdf:li>unsorted</rdf:li>
          </rdf:Bag>
        </dc:subject>
        <dc:publisher>
          <cc:Agent rdf:about="http://www.openclipart.org/">
            <dc:title>Open Clip Art Library, Source: Oxygen Icons, Source: Oxygen Icons, Source: Oxygen Icons, Source: Oxygen Icons</dc:title>
          </cc:Agent>
        </dc:publisher>
        <dc:creator>
          <cc:Agent>
            <dc:title></dc:title>
          </cc:Agent>
        </dc:creator>
        <dc:rights>
          <cc:Agent>
            <dc:title></dc:title>
          </cc:Agent>
        </dc:rights>
        <dc:date></dc:date>
        <dc:format>image/svg+xml</dc:format>
        <dc:type rdf:resource="http://purl.org/dc/dcmitype/StillImage"/>
        <cc:license rdf:resource="http://creativecommons.org/licenses/by-sa/3.0/ or http://creativecommons.org/licenses/LGPL/2.1/"/>
        <dc:language>en</dc:language>
      </cc:Work>
    </rdf:RDF>
  </metadata>
  <sodipodi:namedview bordercolor="#666666" borderopacity="1.0" height="128px" id="base" inkscape:current-layer="layer1" inkscape:cx="57.520016" inkscape:cy="58.513986" inkscape:document-units="px" inkscape:grid-points="true" inkscape:guide-bbox="true" inkscape:pageopacity="0.0" inkscape:pageshadow="2" inkscape:snap-global="false" inkscape:window-height="967" inkscape:window-width="1280" inkscape:window-x="-5" inkscape:window-y="-3" inkscape:zoom="5.6568542" pagecolor="#ffffff" showgrid="true" showguides="true" width="128px">
    <inkscape:grid color="#0000ff" empcolor="#0000ff" empopacity="0.4" empspacing="2" id="GridFromPre046Settings" opacity="0.2" originx="0px" originy="0px" spacingx="4px" spacingy="4px" type="xygrid"/>
  </sodipodi:namedview>
  <defs id="defs2608">
    <linearGradient id="linearGradient35488" inkscape:collect="always">
      <stop id="stop35490" offset="0" style="stop-color:black;stop-opacity:1;"/>
      <stop id="stop35492" offset="1" style="stop-color:black;stop-opacity:0;"/>
    </linearGradient>
    <linearGradient id="linearGradient39155">
      <stop id="stop39157" offset="0" style="stop-color:white;stop-opacity:1;"/>
      <stop id="stop39159" offset="1" style="stop-color:#dadada;stop-opacity:1;"/>
    </linearGradient>
    <linearGradient id="linearGradient3564" inkscape:collect="always">
      <stop id="stop3566" offset="0" style="stop-color:white;stop-opacity:1;"/>
      <stop id="stop3568" offset="1" style="stop-color:white;stop-opacity:0;"/>
    </linearGradient>
    <linearGradient id="linearGradient39171" inkscape:collect="always">
      <stop id="stop39173" offset="0" style="stop-color:white;stop-opacity:1;"/>
      <stop id="stop39175" offset="1" style="stop-color:white;stop-opacity:0;"/>
    </linearGradient>
    <inkscape:perspective id="perspective8923" inkscape:persp3d-origin="60.641243 : 31.306667 : 1" inkscape:vp_x="-11.313709 : 31.603573 : 1" inkscape:vp_y="6.1230318e-14 : 1000 : 0" inkscape:vp_z="124.64124 : 52.64 : 1" sodipodi:type="inkscape:persp3d"/>
    <linearGradient gradientTransform="translate(110,12)" gradientUnits="userSpaceOnUse" id="linearGradient5752" inkscape:collect="always" x1="85.455536" x2="110.38672" xlink:href="#linearGradient3206" y1="62.643799" y2="62.643799"/>
    <linearGradient gradientTransform="translate(110,12)" gradientUnits="userSpaceOnUse" id="linearGradient5750" inkscape:collect="always" x1="85.455536" x2="110.38672" xlink:href="#linearGradient3206" y1="62.643799" y2="62.643799"/>
    <linearGradient gradientTransform="translate(110,20)" gradientUnits="userSpaceOnUse" id="linearGradient5748" inkscape:collect="always" x1="85.455536" x2="110.38672" xlink:href="#linearGradient3206" y1="62.643799" y2="62.643799"/>
    <linearGradient gradientTransform="translate(110,20)" gradientUnits="userSpaceOnUse" id="linearGradient5746" inkscape:collect="always" x1="85.455536" x2="110.38672" xlink:href="#linearGradient3206" y1="62.643799" y2="62.643799"/>
    <linearGradient gradientTransform="translate(110,12)" gradientUnits="userSpaceOnUse" id="linearGradient5744" inkscape:collect="always" x1="85.455536" x2="110.38672" xlink:href="#linearGradient3206" y1="62.643799" y2="62.643799"/>
    <linearGradient gradientTransform="translate(114.22949,0)" gradientUnits="userSpaceOnUse" id="linearGradient5742" inkscape:collect="always" x1="85.455536" x2="110.38672" xlink:href="#linearGradient3206" y1="62.643799" y2="62.643799"/>
    <linearGradient gradientTransform="translate(121.69482,4)" gradientUnits="userSpaceOnUse" id="linearGradient5740" inkscape:collect="always" x1="85.455536" x2="110.38672" xlink:href="#linearGradient3206" y1="62.643799" y2="62.643799"/>
    <linearGradient gradientTransform="translate(114.0708,4)" gradientUnits="userSpaceOnUse" id="linearGradient5738" inkscape:collect="always" x1="85.455536" x2="110.38672" xlink:href="#linearGradient3206" y1="62.643799" y2="62.643799"/>
    <linearGradient gradientTransform="translate(110.06104,0)" gradientUnits="userSpaceOnUse" id="linearGradient5736" inkscape:collect="always" x1="85.455536" x2="110.38672" xlink:href="#linearGradient3206" y1="62.643799" y2="62.643799"/>
    <linearGradient gradientTransform="translate(118.02441,0)" gradientUnits="userSpaceOnUse" id="linearGradient5734" inkscape:collect="always" x1="85.455536" x2="110.38672" xlink:href="#linearGradient3206" y1="62.643799" y2="62.643799"/>
    <linearGradient gradientTransform="translate(117.81933,0)" gradientUnits="userSpaceOnUse" id="linearGradient5732" inkscape:collect="always" x1="85.455536" x2="110.38672" xlink:href="#linearGradient3206" y1="62.643799" y2="62.643799"/>
    <linearGradient id="linearGradient3206" inkscape:collect="always">
      <stop id="stop2466" offset="0" style="stop-color:#000000;stop-opacity:1;"/>
      <stop id="stop2468" offset="1" style="stop-color:#000000;stop-opacity:0;"/>
    </linearGradient>
    <linearGradient gradientTransform="translate(109.81445,0)" gradientUnits="userSpaceOnUse" id="linearGradient5730" inkscape:collect="always" x1="85.455536" x2="110.38672" xlink:href="#linearGradient3206" y1="62.643799" y2="62.643799"/>
    <linearGradient gradientUnits="userSpaceOnUse" id="XMLID_32_" x1="154.6425781" x2="192.0425568" y1="9.7983398" y2="26.3073406">
      <stop id="stop209" offset="0" style="stop-color:#B62C20"/>
      <stop id="stop211" offset="0" style="stop-color:#B62C20"/>
      <stop id="stop213" offset="0.44" style="stop-color:#9F2F27"/>
      <stop id="stop215" offset="0.99" style="stop-color:#8E3F2E"/>
      <stop id="stop217" offset="1" style="stop-color:#8E3F2E"/>
    </linearGradient>
    <linearGradient gradientUnits="userSpaceOnUse" id="XMLID_31_" x1="26.6708984" x2="9.9888086" y1="197.3388672" y2="140.7419128">
      <stop id="stop196" offset="0" style="stop-color:#9B422F"/>
      <stop id="stop198" offset="0" style="stop-color:#9B422F"/>
      <stop id="stop200" offset="0.43" style="stop-color:#A82E28"/>
      <stop id="stop202" offset="0.99" style="stop-color:#B62C29"/>
      <stop id="stop204" offset="1" style="stop-color:#B62C29"/>
    </linearGradient>
    <radialGradient cx="74.0898438" cy="145.75" gradientUnits="userSpaceOnUse" id="XMLID_30_" r="66.9468994">
      <stop id="stop185" offset="0" style="stop-color:#AB2822"/>
      <stop id="stop187" offset="0" style="stop-color:#AB2822"/>
      <stop id="stop189" offset="0.99" style="stop-color:#933028"/>
      <stop id="stop191" offset="1" style="stop-color:#933028"/>
    </radialGradient>
    <radialGradient cx="143.8295898" cy="79.3901367" gradientUnits="userSpaceOnUse" id="XMLID_29_" r="50.3600006">
      <stop id="stop174" offset="0" style="stop-color:#AF2721"/>
      <stop id="stop176" offset="0" style="stop-color:#AF2721"/>
      <stop id="stop178" offset="0.99" style="stop-color:#912F27"/>
      <stop id="stop180" offset="1" style="stop-color:#912F27"/>
    </radialGradient>
    <linearGradient gradientUnits="userSpaceOnUse" id="XMLID_28_" x1="193.6225586" x2="173.1524963" y1="47.9365234" y2="26.0525627">
      <stop id="stop161" offset="0" style="stop-color:#8D362A"/>
      <stop id="stop163" offset="0" style="stop-color:#8D362A"/>
      <stop id="stop165" offset="0.99" style="stop-color:#A93328"/>
      <stop id="stop167" offset="1" style="stop-color:#A93328"/>
    </linearGradient>
    <linearGradient gradientUnits="userSpaceOnUse" id="XMLID_27_" x1="178.5253906" x2="137.4315796" y1="115.5136719" y2="78.6824417">
      <stop id="stop150" offset="0" style="stop-color:#923329"/>
      <stop id="stop152" offset="0" style="stop-color:#923329"/>
      <stop id="stop154" offset="0.99" style="stop-color:#A82822"/>
      <stop id="stop156" offset="1" style="stop-color:#A82822"/>
    </linearGradient>
    <linearGradient gradientUnits="userSpaceOnUse" id="XMLID_26_" x1="99.0766602" x2="52.8225975" y1="171.0332031" y2="159.6173248">
      <stop id="stop137" offset="0" style="stop-color:#9C2A23"/>
      <stop id="stop139" offset="0" style="stop-color:#9C2A23"/>
      <stop id="stop141" offset="0.54" style="stop-color:#A52922"/>
      <stop id="stop143" offset="0.99" style="stop-color:#AF272C"/>
      <stop id="stop145" offset="1" style="stop-color:#AF272C"/>
    </linearGradient>
    <linearGradient gradientUnits="userSpaceOnUse" id="XMLID_25_" x1="-18.5605469" x2="135.0136108" y1="155.109375" y2="-2.8077743">
      <stop id="stop114" offset="0" style="stop-color:#BD0012"/>
      <stop id="stop116" offset="0" style="stop-color:#BD0012"/>
      <stop id="stop118" offset="0.07" style="stop-color:#FFFFFF"/>
      <stop id="stop120" offset="0.17" style="stop-color:#FFFFFF"/>
      <stop id="stop122" offset="0.27" style="stop-color:#C74F35"/>
      <stop id="stop124" offset="0.33" style="stop-color:#942B24"/>
      <stop id="stop126" offset="0.46" style="stop-color:#AC3821"/>
      <stop id="stop128" offset="0.72" style="stop-color:#B73120"/>
      <stop id="stop130" offset="0.99" style="stop-color:#D94320"/>
      <stop id="stop132" offset="1" style="stop-color:#D94320"/>
    </linearGradient>
    <linearGradient gradientUnits="userSpaceOnUse" id="XMLID_24_" x1="3.9038086" x2="7.1708317" y1="113.5551758" y2="146.2651215">
      <stop id="stop5594" offset="0" style="stop-color:#FFFFFF"/>
      <stop id="stop101" offset="0" style="stop-color:#FFFFFF"/>
      <stop id="stop103" offset="0.31" style="stop-color:#D75E3C"/>
      <stop id="stop105" offset="0.99" style="stop-color:#BF3926"/>
      <stop id="stop107" offset="1" style="stop-color:#BF3926"/>
    </linearGradient>
    <linearGradient gradientUnits="userSpaceOnUse" id="XMLID_23_" x1="118.9760742" x2="158.6700134" y1="11.5424805" y2="-8.3045349">
      <stop id="stop86" offset="0" style="stop-color:#FFFFFF"/>
      <stop id="stop88" offset="0" style="stop-color:#FFFFFF"/>
      <stop id="stop90" offset="0.54" style="stop-color:#C53E2C"/>
      <stop id="stop92" offset="0.99" style="stop-color:#BD1C22"/>
      <stop id="stop94" offset="1" style="stop-color:#BD1C22"/>
    </linearGradient>
    <linearGradient gradientUnits="userSpaceOnUse" id="XMLID_22_" x1="147.1040039" x2="156.315033" y1="25.5234375" y2="65.2184601">
      <stop id="stop71" offset="0" style="stop-color:#FFFFFF"/>
      <stop id="stop73" offset="0" style="stop-color:#FFFFFF"/>
      <stop id="stop75" offset="0.18" style="stop-color:#DF7F5B"/>
      <stop id="stop77" offset="0.4" style="stop-color:#C6432B"/>
      <stop id="stop79" offset="0.99" style="stop-color:#AF2721"/>
      <stop id="stop81" offset="1" style="stop-color:#AF2721"/>
    </linearGradient>
    <linearGradient gradientUnits="userSpaceOnUse" id="XMLID_21_" x1="96.1323242" x2="99.2093277" y1="76.7109375" y2="132.1009369">
      <stop id="stop56" offset="0" style="stop-color:#FFFFFF"/>
      <stop id="stop58" offset="0" style="stop-color:#FFFFFF"/>
      <stop id="stop60" offset="0.23" style="stop-color:#E08C68"/>
      <stop id="stop62" offset="0.56" style="stop-color:#BF3929"/>
      <stop id="stop64" offset="0.99" style="stop-color:#AF2721"/>
      <stop id="stop66" offset="1" style="stop-color:#AF2721"/>
    </linearGradient>
    <linearGradient gradientUnits="userSpaceOnUse" id="XMLID_20_" x1="38.6962891" x2="47.0472794" y1="127.3916016" y2="181.6645813">
      <stop id="stop5563" offset="0" style="stop-color:#FFFFFF"/>
      <stop id="stop43" offset="0" style="stop-color:#FFFFFF"/>
      <stop id="stop45" offset="0.23" style="stop-color:#E28C6B"/>
      <stop id="stop5567" offset="0.46" style="stop-color:#D65939"/>
      <stop id="stop5569" offset="0.99" style="stop-color:#A60003"/>
      <stop id="stop5571" offset="1" style="stop-color:#A60003"/>
    </linearGradient>
    <linearGradient gradientUnits="userSpaceOnUse" id="XMLID_19_" x1="151.793457" x2="97.9245911" y1="217.7832031" y2="181.6339417">
      <stop id="stop30" offset="0" style="stop-color:#983423"/>
      <stop id="stop32" offset="0" style="stop-color:#983423"/>
      <stop id="stop34" offset="0.99" style="stop-color:#A03327"/>
      <stop id="stop36" offset="1" style="stop-color:#A03327"/>
    </linearGradient>
    <linearGradient gradientUnits="userSpaceOnUse" id="XMLID_18_" x1="194.894043" x2="141.025177" y1="153.5561523" y2="117.4068985">
      <stop id="stop19" offset="0" style="stop-color:#983423"/>
      <stop id="stop21" offset="0" style="stop-color:#983423"/>
      <stop id="stop23" offset="0.99" style="stop-color:#A03327"/>
      <stop id="stop25" offset="1" style="stop-color:#A03327"/>
    </linearGradient>
    <linearGradient gradientUnits="userSpaceOnUse" id="XMLID_17_" x1="174.0703125" x2="132.2703094" y1="215.5449219" y2="141.7448883">
      <stop id="stop6" offset="0" style="stop-color:#ffffff;stop-opacity:1;"/>
      <stop id="stop8" offset="0" style="stop-color:#fad5c8;stop-opacity:1;"/>
      <stop id="stop10" offset="0.41" style="stop-color:#D84837"/>
      <stop id="stop12" offset="0.99" style="stop-color:#A41D22"/>
      <stop id="stop14" offset="1" style="stop-color:#A41D22"/>
    </linearGradient>
    <linearGradient id="linearGradient10207">
      <stop id="stop10209" offset="0" style="stop-color:#a2a2a2;stop-opacity:1;"/>
      <stop id="stop10211" offset="1" style="stop-color:#ffffff;stop-opacity:1;"/>
    </linearGradient>
    <linearGradient gradientUnits="userSpaceOnUse" id="XMLID_12_" x1="96" x2="88.000198" y1="104" y2="96.000198">
      <stop id="stop83" offset="0" style="stop-color:#888A85"/>
      <stop id="stop85" offset="0.0072" style="stop-color:#8C8E89"/>
      <stop id="stop87" offset="0.0673" style="stop-color:#ABACA9"/>
      <stop id="stop89" offset="0.1347" style="stop-color:#C5C6C4"/>
      <stop id="stop91" offset="0.2652576" style="stop-color:#DBDBDA"/>
      <stop id="stop93" offset="0.37646064" style="stop-color:#EBEBEB"/>
      <stop id="stop95" offset="0.48740286" style="stop-color:#F7F7F6"/>
      <stop id="stop97" offset="0.6324091" style="stop-color:#FDFDFD"/>
      <stop id="stop99" offset="1" style="stop-color:#FFFFFF"/>
    </linearGradient>
    <radialGradient cx="102" cy="112.3047" gradientUnits="userSpaceOnUse" id="XMLID_8_" r="139.55859">
      <stop id="stop41" offset="0" style="stop-color:#b7b8b9;stop-opacity:1;"/>
      <stop id="stop47" offset="0.18851049" style="stop-color:#ECECEC"/>
      <stop id="stop49" offset="0.25718147" style="stop-color:#FAFAFA"/>
      <stop id="stop51" offset="0.30111277" style="stop-color:#FFFFFF"/>
      <stop id="stop53" offset="0.5313" style="stop-color:#FAFAFA"/>
      <stop id="stop55" offset="0.8449" style="stop-color:#EBECEC"/>
      <stop id="stop57" offset="1" style="stop-color:#E1E2E3"/>
    </radialGradient>
    <filter height="1.3839999" id="filter6697" inkscape:collect="always" width="1.3839999" x="-0.19200002" y="-0.19199999">
      <feGaussianBlur id="feGaussianBlur6699" inkscape:collect="always" stdDeviation="1.9447689"/>
    </filter>
    <clipPath clipPathUnits="userSpaceOnUse" id="clipPath7084">
      <path d="M 72,88 L 40,120 L 32,120 L 32,80 L 72,80 L 72,88 z" id="path7086" style="fill:#000000;fill-opacity:1;fill-rule:evenodd;stroke:none;stroke-width:1px;stroke-linecap:butt;stroke-linejoin:miter;stroke-opacity:1"/>
    </clipPath>
    <radialGradient cx="102" cy="112.3047" gradientTransform="matrix(1,0,0,0.9996653,2e-6,3.0160848e-3)" gradientUnits="userSpaceOnUse" id="radialGradient9437" inkscape:collect="always" r="139.55859" xlink:href="#XMLID_8_"/>
    <filter id="filter2770" inkscape:collect="always">
      <feGaussianBlur id="feGaussianBlur2772" inkscape:collect="always" stdDeviation="2.0786429"/>
    </filter>
    <linearGradient gradientTransform="translate(114.0708,24)" gradientUnits="userSpaceOnUse" id="linearGradient11320" inkscape:collect="always" x1="85.455536" x2="110.38672" xlink:href="#linearGradient3206" y1="62.643799" y2="62.643799"/>
    <linearGradient gradientTransform="translate(114.22949,20)" gradientUnits="userSpaceOnUse" id="linearGradient11322" inkscape:collect="always" x1="85.455536" x2="110.38672" xlink:href="#linearGradient3206" y1="62.643799" y2="62.643799"/>
    <linearGradient gradientTransform="translate(105.84375,8)" gradientUnits="userSpaceOnUse" id="linearGradient11329" inkscape:collect="always" x1="85.455536" x2="110.38672" xlink:href="#linearGradient3206" y1="62.643799" y2="62.643799"/>
    <linearGradient gradientTransform="translate(-8.0756836,11.999879)" gradientUnits="userSpaceOnUse" id="linearGradient2343" inkscape:collect="always" x1="85.455536" x2="110.38672" xlink:href="#linearGradient3206" y1="62.643799" y2="62.643799"/>
    <linearGradient gradientTransform="translate(-0.1049846,3.9998789)" gradientUnits="userSpaceOnUse" id="linearGradient2353" inkscape:collect="always" x1="85.455536" x2="110.38672" xlink:href="#linearGradient3206" y1="62.643799" y2="62.643799"/>
    <linearGradient gradientTransform="translate(-0.1269591,-1.211e-4)" gradientUnits="userSpaceOnUse" id="linearGradient2358" inkscape:collect="always" x1="85.455536" x2="110.38672" xlink:href="#linearGradient3206" y1="62.643799" y2="62.643799"/>
    <linearGradient gradientTransform="translate(-4.1367219,-1.2109375e-4)" gradientUnits="userSpaceOnUse" id="linearGradient2363" inkscape:collect="always" x1="85.455536" x2="110.38672" xlink:href="#linearGradient3206" y1="62.643799" y2="62.643799"/>
    <linearGradient gradientTransform="translate(-0.1049846,31.999879)" gradientUnits="userSpaceOnUse" id="linearGradient2381" inkscape:collect="always" x1="85.455536" x2="110.38672" xlink:href="#linearGradient3206" y1="62.643799" y2="62.643799"/>
    <linearGradient gradientTransform="translate(-4.1196241,31.999879)" gradientUnits="userSpaceOnUse" id="linearGradient2383" inkscape:collect="always" x1="85.455536" x2="110.38672" xlink:href="#linearGradient3206" y1="62.643799" y2="62.643799"/>
    <linearGradient gradientTransform="translate(3.8266602,59.999879)" gradientUnits="userSpaceOnUse" id="linearGradient2391" inkscape:collect="always" x1="85.455536" x2="110.38672" xlink:href="#linearGradient3206" y1="62.643799" y2="62.643799"/>
    <linearGradient gradientTransform="translate(10,0)" gradientUnits="userSpaceOnUse" id="linearGradient2403" inkscape:collect="always" x1="98.617439" x2="91.228737" xlink:href="#linearGradient10207" y1="106.41443" y2="99.254974"/>
    <linearGradient gradientUnits="userSpaceOnUse" id="linearGradient2473" inkscape:collect="always" x1="96.013977" x2="115.86523" xlink:href="#linearGradient3206" y1="64.181091" y2="64.181092"/>
    <linearGradient gradientUnits="userSpaceOnUse" id="linearGradient2475" inkscape:collect="always" x1="96.013977" x2="110.36719" xlink:href="#linearGradient3206" y1="64.181091" y2="64.181091"/>
    <linearGradient gradientTransform="translate(3.9511719,1.4769554e-2)" gradientUnits="userSpaceOnUse" id="linearGradient2477" inkscape:collect="always" x1="96.013977" x2="115.86523" xlink:href="#linearGradient3206" y1="64.181091" y2="64.181092"/>
    <linearGradient gradientTransform="translate(3.9462891,0)" gradientUnits="userSpaceOnUse" id="linearGradient2479" inkscape:collect="always" x1="96.013977" x2="115.86523" xlink:href="#linearGradient3206" y1="64.181091" y2="64.181092"/>
    <linearGradient gradientTransform="translate(3.8999023,0)" gradientUnits="userSpaceOnUse" id="linearGradient2481" inkscape:collect="always" x1="96.013977" x2="115.86523" xlink:href="#linearGradient3206" y1="64.181091" y2="64.181092"/>
    <linearGradient gradientTransform="translate(4,0)" gradientUnits="userSpaceOnUse" id="linearGradient2483" inkscape:collect="always" x1="96.013977" x2="115.86523" xlink:href="#linearGradient3206" y1="64.181091" y2="64.181092"/>
    <linearGradient gradientTransform="translate(3.9194336,0)" gradientUnits="userSpaceOnUse" id="linearGradient2485" inkscape:collect="always" x1="96.013977" x2="115.86523" xlink:href="#linearGradient3206" y1="64.181091" y2="64.181092"/>
    <linearGradient gradientTransform="translate(3.8999008,4)" gradientUnits="userSpaceOnUse" id="linearGradient2487" inkscape:collect="always" x1="96.013977" x2="115.86523" xlink:href="#linearGradient3206" y1="64.181091" y2="64.181092"/>
    <linearGradient gradientTransform="translate(3.9389648,4)" gradientUnits="userSpaceOnUse" id="linearGradient2489" inkscape:collect="always" x1="96.013977" x2="115.86523" xlink:href="#linearGradient3206" y1="64.181091" y2="64.181092"/>
    <linearGradient gradientTransform="translate(4,4)" gradientUnits="userSpaceOnUse" id="linearGradient2491" inkscape:collect="always" x1="96.013977" x2="115.86523" xlink:href="#linearGradient3206" y1="64.181091" y2="64.181092"/>
    <linearGradient gradientTransform="translate(3.9194336,3.9365234)" gradientUnits="userSpaceOnUse" id="linearGradient2495" inkscape:collect="always" x1="96.013977" x2="115.86523" xlink:href="#linearGradient3206" y1="64.181091" y2="64.181092"/>
    <linearGradient gradientTransform="translate(3.9633789,4)" gradientUnits="userSpaceOnUse" id="linearGradient2497" inkscape:collect="always" x1="96.013977" x2="115.86523" xlink:href="#linearGradient3206" y1="64.181091" y2="64.181092"/>
    <linearGradient gradientUnits="userSpaceOnUse" id="XMLID_21_-63" x1="96.1323242" x2="99.2093277" y1="76.7109375" y2="132.1009369">
      <stop id="stop4749" offset="0" style="stop-color:#ffffff"/>
      <stop id="stop4751" offset="0" style="stop-color:#ffffff"/>
      <stop id="stop4753" offset="0.23" style="stop-color:#e49c7d"/>
      <stop id="stop4755" offset="0.56" style="stop-color:#d2402f"/>
      <stop id="stop4757" offset="0.99" style="stop-color:#c42b25"/>
      <stop id="stop4759" offset="1" style="stop-color:#c42b25"/>
    </linearGradient>
    <linearGradient gradientUnits="userSpaceOnUse" id="XMLID_20_-109" x1="38.6962891" x2="47.0472794" y1="127.3916016" y2="181.6645813">
      <stop id="stop5229" offset="0" style="stop-color:#ffffff"/>
      <stop id="stop5231" offset="0" style="stop-color:#ffffff"/>
      <stop id="stop5233" offset="0.23" style="stop-color:#e69c80"/>
      <stop id="stop5235" offset="0.46" style="stop-color:#da6a4e"/>
      <stop id="stop5237" offset="0.99" style="stop-color:#bf0003"/>
      <stop id="stop5239" offset="1" style="stop-color:#bf0003"/>
    </linearGradient>
    <linearGradient gradientUnits="userSpaceOnUse" id="XMLID_22_-899" x1="147.1040039" x2="156.315033" y1="25.5234375" y2="65.2184601">
      <stop id="stop5722" offset="0" style="stop-color:#ffffff"/>
      <stop id="stop5724" offset="0" style="stop-color:#ffffff"/>
      <stop id="stop5726" offset="0.18" style="stop-color:#e38f70"/>
      <stop id="stop5728" offset="0.4" style="stop-color:#d34f36"/>
      <stop id="stop5730" offset="0.99" style="stop-color:#c42b25"/>
      <stop id="stop5732" offset="1" style="stop-color:#c42b25"/>
    </linearGradient>
    <linearGradient gradientUnits="userSpaceOnUse" id="linearGradient2422" inkscape:collect="always" x1="174.0703125" x2="132.2703094" xlink:href="#XMLID_17_" y1="215.5449219" y2="141.7448883"/>
    <linearGradient gradientUnits="userSpaceOnUse" id="linearGradient2424" inkscape:collect="always" x1="194.894043" x2="141.025177" xlink:href="#XMLID_18_" y1="153.5561523" y2="117.4068985"/>
    <linearGradient gradientUnits="userSpaceOnUse" id="linearGradient2426" inkscape:collect="always" x1="151.793457" x2="97.9245911" xlink:href="#XMLID_19_" y1="217.7832031" y2="181.6339417"/>
    <linearGradient gradientUnits="userSpaceOnUse" id="linearGradient2428" inkscape:collect="always" x1="38.6962891" x2="47.0472794" xlink:href="#XMLID_20_-109" y1="127.3916016" y2="181.6645813"/>
    <linearGradient gradientUnits="userSpaceOnUse" id="linearGradient2430" inkscape:collect="always" x1="96.1323242" x2="99.2093277" xlink:href="#XMLID_21_-63" y1="76.7109375" y2="132.1009369"/>
    <linearGradient gradientUnits="userSpaceOnUse" id="linearGradient2432" inkscape:collect="always" x1="147.1040039" x2="156.315033" xlink:href="#XMLID_22_-899" y1="25.5234375" y2="65.2184601"/>
    <linearGradient gradientUnits="userSpaceOnUse" id="linearGradient2434" inkscape:collect="always" x1="118.9760742" x2="158.6700134" xlink:href="#XMLID_23_" y1="11.5424805" y2="-8.3045349"/>
    <linearGradient gradientUnits="userSpaceOnUse" id="linearGradient2436" inkscape:collect="always" x1="3.9038086" x2="7.1708317" xlink:href="#XMLID_24_" y1="113.5551758" y2="146.2651215"/>
    <linearGradient gradientUnits="userSpaceOnUse" id="linearGradient2438" inkscape:collect="always" x1="-18.5605469" x2="135.0136108" xlink:href="#XMLID_25_" y1="155.109375" y2="-2.8077743"/>
    <linearGradient gradientUnits="userSpaceOnUse" id="linearGradient2440" inkscape:collect="always" x1="99.0766602" x2="52.8225975" xlink:href="#XMLID_26_" y1="171.0332031" y2="159.6173248"/>
    <linearGradient gradientUnits="userSpaceOnUse" id="linearGradient2442" inkscape:collect="always" x1="178.5253906" x2="137.4315796" xlink:href="#XMLID_27_" y1="115.5136719" y2="78.6824417"/>
    <linearGradient gradientUnits="userSpaceOnUse" id="linearGradient2444" inkscape:collect="always" x1="193.6225586" x2="173.1524963" xlink:href="#XMLID_28_" y1="47.9365234" y2="26.0525627"/>
    <radialGradient cx="143.8295898" cy="79.3901367" gradientUnits="userSpaceOnUse" id="radialGradient2446" inkscape:collect="always" r="50.3600006" xlink:href="#XMLID_29_"/>
    <radialGradient cx="74.0898438" cy="145.75" gradientUnits="userSpaceOnUse" id="radialGradient2448" inkscape:collect="always" r="66.9468994" xlink:href="#XMLID_30_"/>
    <linearGradient gradientUnits="userSpaceOnUse" id="linearGradient2450" inkscape:collect="always" x1="26.6708984" x2="9.9888086" xlink:href="#XMLID_31_" y1="197.3388672" y2="140.7419128"/>
    <linearGradient gradientUnits="userSpaceOnUse" id="linearGradient2452" inkscape:collect="always" x1="154.6425781" x2="192.0425568" xlink:href="#XMLID_32_" y1="9.7983398" y2="26.3073406"/>
    <linearGradient gradientUnits="userSpaceOnUse" id="XMLID_17_-60" x1="174.0703125" x2="132.2703094" y1="215.5449219" y2="141.7448883">
      <stop id="stop3749" offset="0" style="stop-color:#ffffff;stop-opacity:1;"/>
      <stop id="stop3751" offset="0" style="stop-color:#fce6df;stop-opacity:1;"/>
      <stop id="stop3753" offset="0.41" style="stop-color:#dc5b4c"/>
      <stop id="stop3755" offset="0.99" style="stop-color:#b92026"/>
      <stop id="stop3757" offset="1" style="stop-color:#b92026"/>
    </linearGradient>
    <linearGradient gradientUnits="userSpaceOnUse" id="XMLID_18_-143" x1="194.894043" x2="141.025177" y1="153.5561523" y2="117.4068985">
      <stop id="stop3761" offset="0" style="stop-color:#ac3b27"/>
      <stop id="stop3763" offset="0" style="stop-color:#ac3b27"/>
      <stop id="stop3765" offset="0.99" style="stop-color:#b4392b"/>
      <stop id="stop3767" offset="1" style="stop-color:#b4392b"/>
    </linearGradient>
    <linearGradient gradientUnits="userSpaceOnUse" id="XMLID_19_-451" x1="151.793457" x2="97.9245911" y1="217.7832031" y2="181.6339417">
      <stop id="stop3771" offset="0" style="stop-color:#ac3b27"/>
      <stop id="stop3773" offset="0" style="stop-color:#ac3b27"/>
      <stop id="stop3775" offset="0.99" style="stop-color:#b4392b"/>
      <stop id="stop3777" offset="1" style="stop-color:#b4392b"/>
    </linearGradient>
    <linearGradient gradientUnits="userSpaceOnUse" id="XMLID_20_-109-58" x1="38.6962891" x2="47.0472794" y1="127.3916016" y2="181.6645813">
      <stop id="stop3781" offset="0" style="stop-color:#ffffff"/>
      <stop id="stop3783" offset="0" style="stop-color:#ffffff"/>
      <stop id="stop3785" offset="0.23" style="stop-color:#eaac95"/>
      <stop id="stop3787" offset="0.46" style="stop-color:#de7b63"/>
      <stop id="stop3789" offset="0.99" style="stop-color:#d80003"/>
      <stop id="stop3791" offset="1" style="stop-color:#d80003"/>
    </linearGradient>
    <linearGradient gradientUnits="userSpaceOnUse" id="XMLID_21_-63-868" x1="96.1323242" x2="99.2093277" y1="76.7109375" y2="132.1009369">
      <stop id="stop3795" offset="0" style="stop-color:#ffffff"/>
      <stop id="stop3797" offset="0" style="stop-color:#ffffff"/>
      <stop id="stop3799" offset="0.23" style="stop-color:#e8ac92"/>
      <stop id="stop3801" offset="0.56" style="stop-color:#d65343"/>
      <stop id="stop3803" offset="0.99" style="stop-color:#d7312b"/>
      <stop id="stop3805" offset="1" style="stop-color:#d7312b"/>
    </linearGradient>
    <linearGradient gradientUnits="userSpaceOnUse" id="XMLID_22_-899-634" x1="147.1040039" x2="156.315033" y1="25.5234375" y2="65.2184601">
      <stop id="stop3809" offset="0" style="stop-color:#ffffff"/>
      <stop id="stop3811" offset="0" style="stop-color:#ffffff"/>
      <stop id="stop3813" offset="0.18" style="stop-color:#e79f85"/>
      <stop id="stop3815" offset="0.4" style="stop-color:#d7614a"/>
      <stop id="stop3817" offset="0.99" style="stop-color:#d7312b"/>
      <stop id="stop3819" offset="1" style="stop-color:#d7312b"/>
    </linearGradient>
    <linearGradient gradientUnits="userSpaceOnUse" id="XMLID_23_-765" x1="118.9760742" x2="158.6700134" y1="11.5424805" y2="-8.3045349">
      <stop id="stop3823" offset="0" style="stop-color:#ffffff"/>
      <stop id="stop3825" offset="0" style="stop-color:#ffffff"/>
      <stop id="stop3827" offset="0.54" style="stop-color:#d24a37"/>
      <stop id="stop3829" offset="0.99" style="stop-color:#d31f25"/>
      <stop id="stop3831" offset="1" style="stop-color:#d31f25"/>
    </linearGradient>
    <linearGradient gradientUnits="userSpaceOnUse" id="XMLID_24_-448" x1="3.9038086" x2="7.1708317" y1="113.5551758" y2="146.2651215">
      <stop id="stop3835" offset="0" style="stop-color:#ffffff"/>
      <stop id="stop3837" offset="0" style="stop-color:#ffffff"/>
      <stop id="stop3839" offset="0.31" style="stop-color:#db6f51"/>
      <stop id="stop3841" offset="0.99" style="stop-color:#d43f2a"/>
      <stop id="stop3843" offset="1" style="stop-color:#d43f2a"/>
    </linearGradient>
    <linearGradient gradientUnits="userSpaceOnUse" id="XMLID_25_-899" x1="-18.5605469" x2="135.0136108" y1="155.109375" y2="-2.8077743">
      <stop id="stop3847" offset="0" style="stop-color:#d60014"/>
      <stop id="stop3849" offset="0" style="stop-color:#d60014"/>
      <stop id="stop3851" offset="0.07" style="stop-color:#ffffff"/>
      <stop id="stop3853" offset="0.17" style="stop-color:#ffffff"/>
      <stop id="stop3855" offset="0.27" style="stop-color:#ce5f47"/>
      <stop id="stop3857" offset="0.33" style="stop-color:#a83028"/>
      <stop id="stop3859" offset="0.46" style="stop-color:#c13e25"/>
      <stop id="stop3861" offset="0.72" style="stop-color:#cc3623"/>
      <stop id="stop3863" offset="0.99" style="stop-color:#e05231"/>
      <stop id="stop3865" offset="1" style="stop-color:#e05231"/>
    </linearGradient>
    <linearGradient gradientUnits="userSpaceOnUse" id="XMLID_26_-416" x1="99.0766602" x2="52.8225975" y1="171.0332031" y2="159.6173248">
      <stop id="stop3869" offset="0" style="stop-color:#b02f27"/>
      <stop id="stop3871" offset="0" style="stop-color:#b02f27"/>
      <stop id="stop3873" offset="0.54" style="stop-color:#ba2e26"/>
      <stop id="stop3875" offset="0.99" style="stop-color:#c32b31"/>
      <stop id="stop3877" offset="1" style="stop-color:#c32b31"/>
    </linearGradient>
    <linearGradient gradientUnits="userSpaceOnUse" id="XMLID_27_-417" x1="178.5253906" x2="137.4315796" y1="115.5136719" y2="78.6824417">
      <stop id="stop3881" offset="0" style="stop-color:#a5392e"/>
      <stop id="stop3883" offset="0" style="stop-color:#a5392e"/>
      <stop id="stop3885" offset="0.99" style="stop-color:#bd2d26"/>
      <stop id="stop3887" offset="1" style="stop-color:#bd2d26"/>
    </linearGradient>
    <linearGradient gradientUnits="userSpaceOnUse" id="XMLID_28_-306" x1="193.6225586" x2="173.1524963" y1="47.9365234" y2="26.0525627">
      <stop id="stop3891" offset="0" style="stop-color:#a03d2f"/>
      <stop id="stop3893" offset="0" style="stop-color:#a03d2f"/>
      <stop id="stop3895" offset="0.99" style="stop-color:#bd392c"/>
      <stop id="stop3897" offset="1" style="stop-color:#bd392c"/>
    </linearGradient>
    <radialGradient cx="143.8295898" cy="79.3901367" gradientUnits="userSpaceOnUse" id="XMLID_29_-648" r="50.3600006">
      <stop id="stop3901" offset="0" style="stop-color:#c42b25"/>
      <stop id="stop3903" offset="0" style="stop-color:#c42b25"/>
      <stop id="stop3905" offset="0.99" style="stop-color:#a5352c"/>
      <stop id="stop3907" offset="1" style="stop-color:#a5352c"/>
    </radialGradient>
    <radialGradient cx="74.0898438" cy="145.75" gradientUnits="userSpaceOnUse" id="XMLID_30_-736" r="66.9468994">
      <stop id="stop3911" offset="0" style="stop-color:#c02c26"/>
      <stop id="stop3913" offset="0" style="stop-color:#c02c26"/>
      <stop id="stop3915" offset="0.99" style="stop-color:#a7362d"/>
      <stop id="stop3917" offset="1" style="stop-color:#a7362d"/>
    </radialGradient>
    <linearGradient gradientUnits="userSpaceOnUse" id="XMLID_31_-89" x1="26.6708984" x2="9.9888086" y1="197.3388672" y2="140.7419128">
      <stop id="stop3921" offset="0" style="stop-color:#ae4a34"/>
      <stop id="stop3923" offset="0" style="stop-color:#ae4a34"/>
      <stop id="stop3925" offset="0.43" style="stop-color:#bc332c"/>
      <stop id="stop3927" offset="0.99" style="stop-color:#ca312d"/>
      <stop id="stop3929" offset="1" style="stop-color:#ca312d"/>
    </linearGradient>
    <linearGradient gradientUnits="userSpaceOnUse" id="XMLID_32_-308" x1="154.6425781" x2="192.0425568" y1="9.7983398" y2="26.3073406">
      <stop id="stop3933" offset="0" style="stop-color:#cb3123"/>
      <stop id="stop3935" offset="0" style="stop-color:#cb3123"/>
      <stop id="stop3937" offset="0.44" style="stop-color:#b3352c"/>
      <stop id="stop3939" offset="0.99" style="stop-color:#a14734"/>
      <stop id="stop3941" offset="1" style="stop-color:#a14734"/>
    </linearGradient>
    <linearGradient gradientTransform="translate(3.9047863,4)" gradientUnits="userSpaceOnUse" id="linearGradient2530" inkscape:collect="always" x1="96.013977" x2="115.86523" xlink:href="#linearGradient3206" y1="64.181091" y2="64.181092"/>
    <radialGradient cx="28.019106" cy="38.98439" fx="28.019106" fy="38.98439" gradientTransform="matrix(1,0,0,0.342857,0,25.61831)" gradientUnits="userSpaceOnUse" id="radialGradient8976" inkscape:collect="always" r="15.467961" xlink:href="#linearGradient35488"/>
    <linearGradient gradientUnits="userSpaceOnUse" id="linearGradient8978" inkscape:collect="always" x1="31.1875" x2="29.875" xlink:href="#linearGradient39155" y1="18.875" y2="34.375"/>
    <linearGradient gradientTransform="matrix(0.1143001,0,0,0.1143001,-75.256113,74.160841)" gradientUnits="userSpaceOnUse" id="linearGradient8980" inkscape:collect="always" x1="185.9903" x2="190.46461" xlink:href="#linearGradient3564" y1="193.33229" y2="-458.05771"/>
    <radialGradient cx="26.109201" cy="19.668886" fx="26.109201" fy="19.668886" gradientTransform="matrix(2.7611366,0,0,2.1253361,-138.92845,19.135318)" gradientUnits="userSpaceOnUse" id="radialGradient8982" inkscape:collect="always" r="20.278975" xlink:href="#linearGradient39171"/>
    <radialGradient cx="28.019106" cy="38.98439" fx="28.019106" fy="38.98439" gradientTransform="matrix(1,0,0,0.342857,0,25.61831)" gradientUnits="userSpaceOnUse" id="radialGradient9845" inkscape:collect="always" r="15.467961" xlink:href="#linearGradient35488"/>
    <filter id="filter26672" inkscape:collect="always">
      <feGaussianBlur id="feGaussianBlur26674" inkscape:collect="always" stdDeviation="1.5507499"/>
    </filter>
  </defs>
  <g id="layer1" inkscape:groupmode="layer" inkscape:label="Livello 1">
    <path d="M 16,8 L 16,120 C 16,120 79.15625,120 79.15625,120 L 79.1875,120 C 79.187503,120 91.09375,110.09375 96.59375,104.59375 C 102.09375,99.09375 112,87.1875 112,87.1875 L 112,87.15625 L 112,8 L 16,8 z" id="path7865" sodipodi:nodetypes="csccscccc" style="opacity:0.5;fill:#000000;fill-opacity:1;filter:url(#filter2770)" transform="matrix(1.0416667,0,0,1.0267857,-2.6666667,-1.2142891)"/>
    <path d="M 16.000001,8 L 16,120 C 16,120 79.146418,120 79.146418,120 L 112,87.14642 L 112,8 L 16.000001,8 z" id="path34" sodipodi:nodetypes="cccccc" style="fill:#ffffff;fill-opacity:1"/>
    <path d="M 18.000002,9.0000034 C 17.449002,9.0000034 17.000002,9.4488534 17.000002,9.9996684 L 17.000002,117.96352 C 17.000002,118.51533 17.449002,118.96318 18.000002,118.96318 L 77.171999,118.96318 C 77.434999,118.96318 79.934679,119.08131 80.12068,118.89438 L 110.707,88.094202 C 110.894,87.907264 111,85.40942 111,85.146508 L 111,9.9996684 C 111,9.4488534 110.552,9.0000034 110,9.0000034 L 18.000002,9.0000034 z" id="path59" sodipodi:nodetypes="ccccccccccc" style="fill:url(#radialGradient9437);fill-opacity:1"/>
    <g id="g2399" transform="translate(-10,0)">
      <path clip-path="url(#clipPath7084)" d="M 41.879531,115.98249 C 41.879531,115.98249 66.18914,91.672876 66.18914,91.672876 C 66.18914,91.672876 56.836,94.586 46.586,94.586 C 46.586,104.836 41.879531,115.98249 41.879531,115.98249 z " id="path5540" sodipodi:nodetypes="cccc" style="opacity:0.4;fill:#000000;fill-opacity:1;filter:url(#filter6697)" transform="translate(50,0)"/>
      <path d="M 89.172,120 C 89.172,120 101.086,110.086 106.586,104.586 C 112.086,99.086 122,87.172 122,87.172 C 122,87.172 108.25,96 98,96 C 98,106.25 89.172,120 89.172,120 z " id="path14523" sodipodi:nodetypes="csccc" style="fill:url(#linearGradient2403);fill-opacity:1"/>
    </g>
    <g id="g8967" transform="translate(128.6853,-11.09104)">
      <path d="M -41.62593,75.384018 L -41.62593,75.384018 z" id="polygon2501" style="fill:#f082b0;fill-rule:evenodd"/>
      <path d="M 43.487067,38.98439 A 15.467961,5.3033009 0 1 1 12.551145,38.98439 A 15.467961,5.3033009 0 1 1 43.487067,38.98439 z" id="path35486" sodipodi:cx="28.019106" sodipodi:cy="38.98439" sodipodi:rx="15.467961" sodipodi:ry="5.3033009" sodipodi:type="arc" style="opacity:0.54857142;fill:url(#radialGradient8976);fill-opacity:1;fill-rule:nonzero;stroke:none;stroke-width:1;stroke-linecap:square;stroke-linejoin:miter;marker:none;marker-start:none;marker-mid:none;marker-end:none;stroke-miterlimit:4;stroke-dasharray:none;stroke-dashoffset:0;stroke-opacity:1;visibility:visible;display:inline;overflow:visible;enable-background:accumulate" transform="matrix(2.136007,0,0,2.308388,-125.67776,0.8576343)"/>
      <path d="M -86.089018,75.945358 C -86.072618,76.912013 -85.759682,78.791447 -85.299316,80.265738 C -84.324469,83.373713 -82.672915,86.254363 -80.37264,88.791913 C -78.01335,91.395313 -75.111736,93.490793 -71.757924,94.976833 C -68.228843,96.538373 -64.407962,97.336123 -60.44309,97.329843 C -56.478218,97.321443 -52.657636,96.510683 -49.130228,94.937823 C -45.777714,93.437103 -42.876109,91.336603 -40.518486,88.726483 C -38.223367,86.178873 -36.575007,83.293613 -35.600252,80.183946 C -35.107,78.611044 -34.800821,77.016876 -34.672894,75.414532 C -34.550002,73.840033 -34.602433,72.257321 -34.826825,70.681181 C -35.26261,67.604285 -36.329223,64.719063 -37.965833,62.086138 C -39.466975,59.669506 -41.398449,57.552687 -43.693987,55.771792 C -43.693987,55.771792 -43.690641,55.768468 -43.690641,55.768468 C -43.690641,55.768468 -66.87043,37.967288 -66.87043,37.967288 C -66.890155,37.9509 -66.908189,37.934516 -66.929581,37.919776 C -68.453284,36.753237 -71.010843,36.756508 -72.681974,37.927962 C -74.3761,39.110888 -74.512127,40.960715 -73.009724,42.199375 C -69.825249,44.713341 -66.653312,47.342143 -63.451199,49.855793 C -63.451199,49.855793 -92.871992,49.836172 -92.871992,49.836172 C -96.215559,49.836172 -98.182754,51.425104 -98.597012,53.747982 C -98.962559,55.797747 -97.343316,58.337739 -94.439901,58.337739 C -89.483979,58.344214 -84.479509,58.326244 -79.505937,58.316423 C -79.505937,58.316423 -106.16101,78.035962 -106.16101,78.035962 C -106.19542,78.062183 -106.22983,78.085118 -106.26423,78.111344 C -108.77427,80.036316 -109.58854,83.239493 -108.00749,85.266193 C -106.39858,87.327273 -102.98252,87.328943 -100.43973,85.276253 C -100.43973,85.276253 -85.894014,73.371443 -85.894014,73.371443 C -85.894014,73.371443 -86.103728,74.980338 -86.089018,75.945358 z" id="path2482" sodipodi:nodetypes="csssssssssscccsscccscccssccc" style="fill:#f57900;fill-rule:evenodd;stroke:#ce5c00;stroke-width:1.67623818;stroke-linecap:butt;stroke-linejoin:miter;stroke-miterlimit:4;stroke-dasharray:none"/>
      <path d="M 42.75,25.75 A 11.5625,10.125 0 1 1 19.625,25.75 A 11.5625,10.125 0 1 1 42.75,25.75 z" id="path39153" sodipodi:cx="31.1875" sodipodi:cy="25.75" sodipodi:rx="11.5625" sodipodi:ry="10.125" sodipodi:type="arc" style="opacity:1;fill:url(#linearGradient8978);fill-opacity:1;fill-rule:nonzero;stroke:none;stroke-width:1;stroke-linecap:square;stroke-linejoin:miter;marker:none;marker-start:none;marker-mid:none;marker-end:none;stroke-miterlimit:4;stroke-dasharray:none;stroke-dashoffset:0;stroke-opacity:1;visibility:visible;display:inline;overflow:visible;enable-background:accumulate" transform="matrix(1.3772326,0,0,1.4072121,-103.14106,35.362418)"/>
      <path d="M -69.748216,38.95637 C -70.426841,38.957295 -71.120415,39.167063 -71.584149,39.49214 C -71.585344,39.493336 -71.586533,39.494533 -71.587728,39.495718 C -72.057427,39.823679 -72.152386,40.112585 -72.166374,40.267245 C -72.180367,40.421905 -72.188565,40.547641 -71.848467,40.828026 C -71.816635,40.8544 -71.785666,40.881793 -71.75561,40.910176 C -71.547318,41.079522 -62.193683,48.68616 -62.193683,48.68616 C -61.567349,49.195888 -61.329012,50.044301 -61.59829,50.805619 C -61.867552,51.566955 -62.586304,51.44717 -63.393835,51.449772 C -72.837997,51.535486 -92.911831,51.481914 -92.911831,51.481914 C -94.509232,51.482984 -96.846435,52.348182 -96.957555,54.140028 C -97.064102,55.858083 -95.433342,56.583142 -94.312017,56.583142 C -94.312017,56.583142 -79.510158,56.554563 -79.510158,56.554563 C -78.691546,56.553574 -77.963227,56.925906 -77.699039,57.700702 C -77.434845,58.475509 -77.693466,58.59172 -78.342154,59.09104 C -78.342154,59.09104 -104.99551,79.550761 -104.99551,79.550761 C -104.99789,79.553151 -105.00027,79.555536 -105.00265,79.557904 C -105.10999,79.639697 -105.14475,79.662262 -105.10623,79.632923 C -106.03432,80.344684 -106.60832,81.276843 -106.8136,82.108223 C -107.01886,82.939603 -106.89169,83.587583 -106.49927,84.090623 C -105.69663,85.118853 -103.53338,85.317813 -101.64152,83.790583 C -101.64152,83.790583 -87.103959,71.892659 -87.103959,71.892659 C -86.497235,71.396908 -85.649392,71.321721 -84.964895,71.702962 C -84.280409,72.084203 -83.897946,72.84462 -84,73.621448 C -84,73.621448 -84.188578,75.264234 -84.178599,75.918159 C -83.856167,80.337405 -81.750858,84.156863 -78.956505,87.508913 C -74.132723,92.827293 -67.475297,95.146333 -60.447034,95.420623 C -53.401099,95.346963 -46.725704,92.633993 -41.937565,87.444613 C -33.189416,76.740378 -35.330273,65.043532 -44.8665,57.28368 C -52.403519,51.150628 -60.310165,45.413885 -68.033703,39.481429 C -68.040895,39.475536 -68.048038,39.469575 -68.055133,39.463576 C -68.067143,39.455376 -68.079051,39.447036 -68.090855,39.438565 C -68.443772,39.168376 -69.070862,38.955428 -69.748216,38.95637 z" id="path3562" sodipodi:nodetypes="cssssscscczccsccssssccscccccscssc" style="opacity:0.4857143;fill:none;fill-opacity:1;fill-rule:evenodd;stroke:url(#linearGradient8980);stroke-width:1.67623818;stroke-linecap:butt;stroke-linejoin:miter;stroke-miterlimit:4;stroke-dasharray:none;stroke-opacity:1"/>
      <path d="M -69.396053,70.347733 C -69.271233,68.066107 -68.156823,66.052113 -66.481568,64.626276 C -64.832958,63.224635 -62.619158,62.368807 -60.200913,62.368807 C -57.78421,62.368807 -55.570405,63.224635 -53.92218,64.626276 C -52.245079,66.052113 -51.132016,68.064597 -51.005734,70.346223 C -50.876367,72.694382 -51.815025,74.874709 -53.460169,76.489553 C -55.13727,78.134626 -57.528561,79.167347 -60.200913,79.167347 C -62.874802,79.167347 -65.266098,78.134626 -66.943118,76.489553 C -68.589957,74.874709 -69.525377,72.694382 -69.396053,70.347733 z" id="path2478" style="fill:#3465a4;fill-rule:evenodd;stroke:none;stroke-width:1.0074476;stroke-linecap:butt;stroke-linejoin:miter;stroke-miterlimit:4;stroke-dasharray:none"/>
      <path d="M -69.722212,38.96386 C -70.400837,38.964788 -71.14424,39.162608 -71.60798,39.487685 C -72.077678,39.815645 -72.170193,40.118763 -72.184186,40.273422 C -72.19818,40.428082 -72.209989,40.569244 -71.869892,40.849629 C -71.838054,40.876003 -71.795183,40.873629 -71.765127,40.902012 C -71.556841,41.071358 -62.179141,48.706998 -62.179141,48.706998 C -61.552796,49.216725 -61.333657,50.040976 -61.602935,50.802295 C -61.872191,51.563625 -62.576407,51.428282 -63.383937,51.430884 C -72.8281,51.516604 -92.927633,51.483267 -92.927633,51.483267 C -94.525029,51.484331 -96.84996,52.362925 -96.961081,54.154771 C -97.067627,55.872825 -95.410902,56.564363 -94.289577,56.564363 C -94.289577,56.564363 -79.517725,56.564363 -79.517725,56.564363 C -78.699113,56.563369 -77.948533,56.94198 -77.68434,57.716776 C -77.420151,58.491583 -77.716623,58.579405 -78.365311,59.078719 C -78.365311,59.078719 -104.9756,79.560256 -104.9756,79.560256 C -104.97798,79.562652 -105.0256,79.557888 -105.02798,79.560256 C -105.13532,79.642049 -105.11888,79.641973 -105.08036,79.612639 C -106.00845,80.3244 -106.60371,81.295613 -106.80898,82.126993 C -107.01424,82.958383 -106.88711,83.562113 -106.49469,84.065153 C -105.69205,85.093373 -103.51498,85.330463 -101.62312,83.803233 C -101.62312,83.803233 -87.113178,71.912416 -87.113178,71.912416 C -86.506458,71.41667 -85.649995,71.321651 -84.965498,71.702891 C -84.281017,72.084127 -83.920565,72.864208 -84.022614,73.641041 C -84.022614,73.641041 -84.18974,75.239561 -84.179761,75.893486 C -84.020555,78.075541 -83.422745,80.120666 -82.521895,82.035613 C -78.124492,89.736853 -66.439328,61.36109 -38.92133,64.107433 C -40.342527,61.613914 -42.334516,59.336932 -44.84055,57.297717 C -52.377564,51.164664 -60.322436,45.420137 -68.045974,39.487685 C -68.057979,39.479487 -68.086552,39.443773 -68.098356,39.435302 C -68.451274,39.165112 -69.044858,38.962921 -69.722212,38.96386 z" id="path39166" sodipodi:nodetypes="csssscsccsscsccssssscsscccsssc" style="opacity:0.51999996;fill:url(#radialGradient8982);fill-opacity:1;fill-rule:evenodd;stroke:none;stroke-width:1;stroke-linecap:butt;stroke-linejoin:miter;stroke-miterlimit:4;stroke-dasharray:none;stroke-opacity:1"/>
    </g>
    <path d="M -28.00281,64.96798 L -28.00281,64.96798 z" id="path9831" style="fill:#f082b0;fill-rule:evenodd"/>
    <path d="M 43.487067,38.98439 A 15.467961,5.3033009 0 1 1 12.551145,38.98439 A 15.467961,5.3033009 0 1 1 43.487067,38.98439 z" id="path9833" sodipodi:cx="28.019106" sodipodi:cy="38.98439" sodipodi:rx="15.467961" sodipodi:ry="5.3033009" sodipodi:type="arc" style="opacity:0.54857142;fill:url(#radialGradient9845);fill-opacity:1;fill-rule:nonzero;stroke:none;stroke-width:1;stroke-linecap:square;stroke-linejoin:miter;marker:none;marker-start:none;marker-mid:none;marker-end:none;stroke-miterlimit:4;stroke-dasharray:none;stroke-dashoffset:0;stroke-opacity:1;visibility:visible;display:inline;overflow:visible;enable-background:accumulate" transform="matrix(2.136007,0,0,2.308388,-112.05464,-9.5584037)"/>
  </g>
</svg>
