<?xml version="1.0" encoding="UTF-8" standalone="no"?>
<!-- Created with Inkscape (http://www.inkscape.org/) --><svg height="128" id="svg2606" inkscape:export-filename="/home/david/Projects/Oxygen/oxygen/scalable/mimetypes/xml.png" inkscape:export-xdpi="11.25" inkscape:export-ydpi="11.25" inkscape:output_extension="org.inkscape.output.svg.inkscape" inkscape:version="0.45.1" sodipodi:docbase="/home/david/sandbox" sodipodi:docname="text-xml.svg" sodipodi:version="0.32" version="1.0" width="128" xmlns="http://www.w3.org/2000/svg" xmlns:cc="http://web.resource.org/cc/" xmlns:dc="http://purl.org/dc/elements/1.1/" xmlns:inkscape="http://www.inkscape.org/namespaces/inkscape" xmlns:rdf="http://www.w3.org/1999/02/22-rdf-syntax-ns#" xmlns:sodipodi="http://sodipodi.sourceforge.net/DTD/sodipodi-0.dtd" xmlns:svg="http://www.w3.org/2000/svg" xmlns:xlink="http://www.w3.org/1999/xlink">
  <metadata>
    <rdf:RDF xmlns:cc="http://web.resource.org/cc/" xmlns:dc="http://purl.org/dc/elements/1.1/" xmlns:rdf="http://www.w3.org/1999/02/22-rdf-syntax-ns#">
      <cc:Work rdf:about="">
        <dc:title></dc:title>
        <dc:description></dc:description>
        <dc:subject>
          <rdf:Bag>
            <rdf:li>unsorted</rdf:li>
          </rdf:Bag>
        </dc:subject>
        <dc:publisher>
          <cc:Agent rdf:about="http://www.openclipart.org/">
            <dc:title>Open Clip Art Library, Source: Oxygen Icons, Source: Oxygen Icons, Source: Oxygen Icons, Source: Oxygen Icons</dc:title>
          </cc:Agent>
        </dc:publisher>
        <dc:creator>
          <cc:Agent>
            <dc:title></dc:title>
          </cc:Agent>
        </dc:creator>
        <dc:rights>
          <cc:Agent>
            <dc:title></dc:title>
          </cc:Agent>
        </dc:rights>
        <dc:date></dc:date>
        <dc:format>image/svg+xml</dc:format>
        <dc:type rdf:resource="http://purl.org/dc/dcmitype/StillImage"/>
        <cc:license rdf:resource="http://creativecommons.org/licenses/by-sa/3.0/ or http://creativecommons.org/licenses/LGPL/2.1/"/>
        <dc:language>en</dc:language>
      </cc:Work>
    </rdf:RDF>
  </metadata>
  <defs id="defs2608">
    <linearGradient gradientTransform="translate(110,12)" gradientUnits="userSpaceOnUse" id="linearGradient5752" inkscape:collect="always" x1="85.455536" x2="110.38672" xlink:href="#linearGradient3206" y1="62.643799" y2="62.643799"/>
    <linearGradient gradientTransform="translate(110,12)" gradientUnits="userSpaceOnUse" id="linearGradient5750" inkscape:collect="always" x1="85.455536" x2="110.38672" xlink:href="#linearGradient3206" y1="62.643799" y2="62.643799"/>
    <linearGradient gradientTransform="translate(110,12)" gradientUnits="userSpaceOnUse" id="linearGradient5748" inkscape:collect="always" x1="85.455536" x2="110.38672" xlink:href="#linearGradient3206" y1="62.643799" y2="62.643799"/>
    <linearGradient gradientTransform="translate(110,12)" gradientUnits="userSpaceOnUse" id="linearGradient5746" inkscape:collect="always" x1="85.455536" x2="110.38672" xlink:href="#linearGradient3206" y1="62.643799" y2="62.643799"/>
    <linearGradient gradientTransform="translate(110,12)" gradientUnits="userSpaceOnUse" id="linearGradient5744" inkscape:collect="always" x1="85.455536" x2="110.38672" xlink:href="#linearGradient3206" y1="62.643799" y2="62.643799"/>
    <linearGradient gradientTransform="translate(110.271,4)" gradientUnits="userSpaceOnUse" id="linearGradient5742" inkscape:collect="always" x1="85.455536" x2="110.38672" xlink:href="#linearGradient3206" y1="62.643799" y2="62.643799"/>
    <linearGradient gradientTransform="translate(109.84863,4)" gradientUnits="userSpaceOnUse" id="linearGradient5740" inkscape:collect="always" x1="85.455536" x2="110.38672" xlink:href="#linearGradient3206" y1="62.643799" y2="62.643799"/>
    <linearGradient gradientTransform="translate(110.12451,4)" gradientUnits="userSpaceOnUse" id="linearGradient5738" inkscape:collect="always" x1="85.455536" x2="110.38672" xlink:href="#linearGradient3206" y1="62.643799" y2="62.643799"/>
    <linearGradient gradientTransform="translate(109.88525,4)" gradientUnits="userSpaceOnUse" id="linearGradient5736" inkscape:collect="always" x1="85.455536" x2="110.38672" xlink:href="#linearGradient3206" y1="62.643799" y2="62.643799"/>
    <linearGradient gradientTransform="translate(109.84863,4)" gradientUnits="userSpaceOnUse" id="linearGradient5734" inkscape:collect="always" x1="85.455536" x2="110.38672" xlink:href="#linearGradient3206" y1="62.643799" y2="62.643799"/>
    <linearGradient gradientTransform="translate(109.84863,4)" gradientUnits="userSpaceOnUse" id="linearGradient5732" inkscape:collect="always" x1="85.455536" x2="110.38672" xlink:href="#linearGradient3206" y1="62.643799" y2="62.643799"/>
    <linearGradient id="linearGradient3206" inkscape:collect="always">
      <stop id="stop2466" offset="0" style="stop-color:#000000;stop-opacity:1;"/>
      <stop id="stop2468" offset="1" style="stop-color:#000000;stop-opacity:0;"/>
    </linearGradient>
    <linearGradient gradientTransform="translate(109.84863,0)" gradientUnits="userSpaceOnUse" id="linearGradient5730" inkscape:collect="always" x1="85.455536" x2="110.38672" xlink:href="#linearGradient3206" y1="62.643799" y2="62.643799"/>
    <linearGradient id="linearGradient10207">
      <stop id="stop10209" offset="0" style="stop-color:#a2a2a2;stop-opacity:1;"/>
      <stop id="stop10211" offset="1" style="stop-color:#ffffff;stop-opacity:1;"/>
    </linearGradient>
    <linearGradient gradientUnits="userSpaceOnUse" id="XMLID_12_" x1="96" x2="88.000198" y1="104" y2="96.000198">
      <stop id="stop83" offset="0" style="stop-color:#888A85"/>
      <stop id="stop85" offset="0.0072" style="stop-color:#8C8E89"/>
      <stop id="stop87" offset="0.0673" style="stop-color:#ABACA9"/>
      <stop id="stop89" offset="0.1347" style="stop-color:#C5C6C4"/>
      <stop id="stop91" offset="0.2652576" style="stop-color:#DBDBDA"/>
      <stop id="stop93" offset="0.37646064" style="stop-color:#EBEBEB"/>
      <stop id="stop95" offset="0.48740286" style="stop-color:#F7F7F6"/>
      <stop id="stop97" offset="0.6324091" style="stop-color:#FDFDFD"/>
      <stop id="stop99" offset="1" style="stop-color:#FFFFFF"/>
    </linearGradient>
    <radialGradient cx="102" cy="112.3047" gradientUnits="userSpaceOnUse" id="XMLID_8_" r="139.55859">
      <stop id="stop41" offset="0" style="stop-color:#b7b8b9;stop-opacity:1;"/>
      <stop id="stop47" offset="0.18851049" style="stop-color:#ECECEC"/>
      <stop id="stop49" offset="0.25718147" style="stop-color:#FAFAFA"/>
      <stop id="stop51" offset="0.30111277" style="stop-color:#FFFFFF"/>
      <stop id="stop53" offset="0.5313" style="stop-color:#FAFAFA"/>
      <stop id="stop55" offset="0.8449" style="stop-color:#EBECEC"/>
      <stop id="stop57" offset="1" style="stop-color:#E1E2E3"/>
    </radialGradient>
    <filter height="1.3839999" id="filter6697" inkscape:collect="always" width="1.3839999" x="-0.19200002" y="-0.19199999">
      <feGaussianBlur id="feGaussianBlur6699" inkscape:collect="always" stdDeviation="1.9447689"/>
    </filter>
    <clipPath clipPathUnits="userSpaceOnUse" id="clipPath7084">
      <path d="M 72,88 L 40,120 L 32,120 L 32,80 L 72,80 L 72,88 z" id="path7086" style="fill:#000000;fill-opacity:1;fill-rule:evenodd;stroke:none;stroke-width:1px;stroke-linecap:butt;stroke-linejoin:miter;stroke-opacity:1"/>
    </clipPath>
    <radialGradient cx="102" cy="112.3047" gradientTransform="matrix(1,0,0,0.9996653,2e-6,3.0160848e-3)" gradientUnits="userSpaceOnUse" id="radialGradient9437" inkscape:collect="always" r="139.55859" xlink:href="#XMLID_8_"/>
    <linearGradient gradientTransform="translate(10,0)" gradientUnits="userSpaceOnUse" id="linearGradient10213" inkscape:collect="always" x1="98.617439" x2="91.228737" xlink:href="#linearGradient10207" y1="106.41443" y2="99.254974"/>
    <filter id="filter2770" inkscape:collect="always">
      <feGaussianBlur id="feGaussianBlur2772" inkscape:collect="always" stdDeviation="2.0786429"/>
    </filter>
    <linearGradient gradientTransform="translate(220.74355,17.728909)" gradientUnits="userSpaceOnUse" id="linearGradient4730" inkscape:collect="always" x1="60.125" x2="60.125" xlink:href="#XMLID_39_" y1="12" y2="20"/>
    <linearGradient gradientTransform="translate(220.74355,17.728909)" gradientUnits="userSpaceOnUse" id="linearGradient4727" inkscape:collect="always" x1="68.209" x2="68.209" xlink:href="#XMLID_40_" y1="12" y2="20"/>
    <radialGradient cx="102" cy="112.3047" gradientTransform="matrix(0.5846529,0,0,0.5190255,23.045068,-12.698347)" gradientUnits="userSpaceOnUse" id="radialGradient4578" inkscape:collect="always" r="139.55859" xlink:href="#XMLID_10_"/>
    <linearGradient gradientTransform="matrix(0.5846528,0,0,0.5190255,30.11937,-12.698347)" gradientUnits="userSpaceOnUse" id="linearGradient4575" inkscape:collect="always" x1="72.7031" x2="91.9856" xlink:href="#XMLID_10_" y1="53.3589" y2="72.6414"/>
    <linearGradient gradientTransform="matrix(0.5846528,0,0,0.5190255,18.11937,-16.698347)" gradientUnits="userSpaceOnUse" id="linearGradient4572" inkscape:collect="always" x1="72.7031" x2="91.9856" xlink:href="#XMLID_10_" y1="53.3589" y2="72.6414"/>
    <radialGradient cx="102" cy="112.3047" gradientTransform="matrix(0.5846529,0,0,0.5190255,11.045068,-16.698347)" gradientUnits="userSpaceOnUse" id="radialGradient4570" inkscape:collect="always" r="139.55859" xlink:href="#XMLID_10_"/>
    <linearGradient gradientTransform="translate(-143,-64)" gradientUnits="userSpaceOnUse" id="linearGradient4568" inkscape:collect="always" x1="154.1006" x2="151.9005" xlink:href="#XMLID_68_" y1="79.1006" y2="76.9005"/>
    <linearGradient gradientTransform="translate(-143,-64)" gradientUnits="userSpaceOnUse" id="linearGradient4566" inkscape:collect="always" x1="153" x2="153" xlink:href="#XMLID_67_" y1="79.5566" y2="76.4442"/>
    <linearGradient gradientTransform="translate(-143,-64)" gradientUnits="userSpaceOnUse" id="linearGradient4564" inkscape:collect="always" x1="154.1006" x2="151.9005" xlink:href="#XMLID_66_" y1="87.1006" y2="84.9005"/>
    <linearGradient gradientTransform="translate(-143,-64)" gradientUnits="userSpaceOnUse" id="linearGradient4562" inkscape:collect="always" x1="153" x2="153" xlink:href="#XMLID_65_" y1="87.5566" y2="84.4442"/>
    <linearGradient gradientTransform="translate(-143,-64)" gradientUnits="userSpaceOnUse" id="linearGradient4560" inkscape:collect="always" x1="154.1006" x2="151.9005" xlink:href="#XMLID_64_" y1="95.1006" y2="92.9005"/>
    <linearGradient gradientTransform="translate(-143,-64)" gradientUnits="userSpaceOnUse" id="linearGradient4558" inkscape:collect="always" x1="153" x2="153" xlink:href="#XMLID_63_" y1="95.5566" y2="92.4442"/>
    <linearGradient gradientTransform="translate(-143,-64)" gradientUnits="userSpaceOnUse" id="linearGradient4556" inkscape:collect="always" x1="154.1006" x2="151.9005" xlink:href="#XMLID_62_" y1="103.1006" y2="100.9005"/>
    <linearGradient gradientTransform="translate(-143,-64)" gradientUnits="userSpaceOnUse" id="linearGradient4554" inkscape:collect="always" x1="153" x2="153" xlink:href="#XMLID_61_" y1="103.5566" y2="100.4442"/>
    <linearGradient gradientTransform="translate(-143,-64)" gradientUnits="userSpaceOnUse" id="linearGradient4552" inkscape:collect="always" x1="154.1006" x2="151.9005" xlink:href="#XMLID_60_" y1="111.1006" y2="108.9005"/>
    <linearGradient gradientTransform="translate(-143,-64)" gradientUnits="userSpaceOnUse" id="linearGradient4550" inkscape:collect="always" x1="153" x2="153" xlink:href="#XMLID_59_" y1="111.5566" y2="108.4442"/>
    <linearGradient gradientTransform="translate(-143,-64)" gradientUnits="userSpaceOnUse" id="linearGradient4548" inkscape:collect="always" x1="154.1006" x2="151.9005" xlink:href="#XMLID_58_" y1="119.1006" y2="116.9005"/>
    <linearGradient gradientTransform="translate(-143,-64)" gradientUnits="userSpaceOnUse" id="linearGradient4546" inkscape:collect="always" x1="153" x2="153" xlink:href="#XMLID_57_" y1="119.5566" y2="116.4442"/>
    <linearGradient gradientTransform="translate(-143,-64)" gradientUnits="userSpaceOnUse" id="linearGradient4544" inkscape:collect="always" x1="154.1006" x2="151.9005" xlink:href="#XMLID_56_" y1="127.1006" y2="124.9005"/>
    <linearGradient gradientTransform="translate(-143,-64)" gradientUnits="userSpaceOnUse" id="linearGradient4542" inkscape:collect="always" x1="153" x2="153" xlink:href="#XMLID_55_" y1="127.5566" y2="124.4442"/>
    <linearGradient gradientTransform="translate(-143,-64)" gradientUnits="userSpaceOnUse" id="linearGradient4540" inkscape:collect="always" x1="154.1006" x2="151.9005" xlink:href="#XMLID_54_" y1="135.1006" y2="132.9005"/>
    <linearGradient gradientTransform="translate(-143,-64)" gradientUnits="userSpaceOnUse" id="linearGradient4538" inkscape:collect="always" x1="153" x2="153" xlink:href="#XMLID_53_" y1="135.5566" y2="132.4442"/>
    <linearGradient gradientTransform="translate(-143,-64)" gradientUnits="userSpaceOnUse" id="linearGradient4536" inkscape:collect="always" x1="154.1006" x2="151.9005" xlink:href="#XMLID_52_" y1="143.1006" y2="140.9005"/>
    <linearGradient gradientTransform="translate(-143,-64)" gradientUnits="userSpaceOnUse" id="linearGradient4534" inkscape:collect="always" x1="153" x2="153" xlink:href="#XMLID_51_" y1="143.5566" y2="140.4442"/>
    <linearGradient gradientTransform="translate(-143,-64)" gradientUnits="userSpaceOnUse" id="linearGradient4532" inkscape:collect="always" x1="154.1006" x2="151.9005" xlink:href="#XMLID_50_" y1="151.1006" y2="148.9005"/>
    <linearGradient gradientTransform="translate(-143,-64)" gradientUnits="userSpaceOnUse" id="linearGradient4530" inkscape:collect="always" x1="153" x2="153" xlink:href="#XMLID_49_" y1="151.5566" y2="148.4442"/>
    <linearGradient gradientTransform="translate(-143,-64)" gradientUnits="userSpaceOnUse" id="linearGradient4528" inkscape:collect="always" x1="154.1006" x2="151.9005" xlink:href="#XMLID_48_" y1="159.1006" y2="156.9005"/>
    <linearGradient gradientTransform="translate(-143,-64)" gradientUnits="userSpaceOnUse" id="linearGradient4526" inkscape:collect="always" x1="153" x2="153" xlink:href="#XMLID_47_" y1="159.5566" y2="156.4442"/>
    <linearGradient gradientTransform="translate(-143,-64)" gradientUnits="userSpaceOnUse" id="linearGradient4524" inkscape:collect="always" x1="154.1006" x2="151.9005" xlink:href="#XMLID_46_" y1="167.1006" y2="164.9005"/>
    <linearGradient gradientTransform="translate(-143,-64)" gradientUnits="userSpaceOnUse" id="linearGradient4522" inkscape:collect="always" x1="153" x2="153" xlink:href="#XMLID_45_" y1="167.5566" y2="164.4442"/>
    <linearGradient gradientTransform="translate(-143,-64)" gradientUnits="userSpaceOnUse" id="linearGradient4520" inkscape:collect="always" x1="154.1006" x2="151.9005" xlink:href="#XMLID_44_" y1="175.1006" y2="172.9005"/>
    <linearGradient gradientTransform="translate(-143,-64)" gradientUnits="userSpaceOnUse" id="linearGradient4518" inkscape:collect="always" x1="153" x2="153" xlink:href="#XMLID_43_" y1="175.5566" y2="172.4442"/>
    <linearGradient gradientTransform="translate(0,14.999998)" gradientUnits="userSpaceOnUse" id="linearGradient4516" inkscape:collect="always" x1="28" x2="16" xlink:href="#XMLID_42_" y1="24.4585" y2="24.4585"/>
    <linearGradient gradientTransform="matrix(1,0,0,0.8052348,0,20.534641)" gradientUnits="userSpaceOnUse" id="linearGradient4514" inkscape:collect="always" x1="28" x2="16" xlink:href="#XMLID_41_" y1="68.208" y2="68.208"/>
    <linearGradient gradientTransform="translate(0,14.999998)" gradientUnits="userSpaceOnUse" id="linearGradient4512" inkscape:collect="always" x1="68.209" x2="68.209" xlink:href="#XMLID_40_" y1="12" y2="20"/>
    <linearGradient gradientTransform="translate(0,14.999998)" gradientUnits="userSpaceOnUse" id="linearGradient4510" inkscape:collect="always" x1="60.125" x2="60.125" xlink:href="#XMLID_39_" y1="12" y2="20"/>
    <linearGradient gradientTransform="matrix(0.9461857,0,0,0.3693188,3.9124731,-3.266902)" gradientUnits="userSpaceOnUse" id="linearGradient4361" inkscape:collect="always" x1="54.5298" x2="72.4671" xlink:href="#XMLID_9_" y1="54.0244" y2="71.9617"/>
    <linearGradient gradientUnits="userSpaceOnUse" id="linearGradient3717" inkscape:collect="always" x1="239" x2="288.99405" xlink:href="#linearGradient8888" y1="-76.658363" y2="22.65362"/>
    <radialGradient cx="102" cy="112.3047" gradientTransform="matrix(0.5846529,0,0,0.5190255,11.045068,-16.698347)" gradientUnits="userSpaceOnUse" id="radialGradient3715" inkscape:collect="always" r="139.55859" xlink:href="#XMLID_10_"/>
    <linearGradient gradientTransform="matrix(0.5846528,0,0,0.5190255,18.11937,-16.698347)" gradientUnits="userSpaceOnUse" id="linearGradient3712" inkscape:collect="always" x1="72.7031" x2="91.9856" xlink:href="#XMLID_10_" y1="53.3589" y2="72.6414"/>
    <linearGradient gradientUnits="userSpaceOnUse" id="linearGradient2702" x1="72.703102" x2="91.985603" y1="53.358898" y2="72.641403">
      <stop id="stop2704" offset="0" style="stop-color:#F082B0"/>
      <stop id="stop2706" offset="1" style="stop-color:#E85290"/>
    </linearGradient>
    <linearGradient gradientUnits="userSpaceOnUse" id="linearGradient2695" x1="54.5298" x2="72.467102" y1="54.024399" y2="71.9617">
      <stop id="stop2697" offset="0" style="stop-color:#F082B0"/>
      <stop id="stop2699" offset="1" style="stop-color:#E85290"/>
    </linearGradient>
    <linearGradient gradientUnits="userSpaceOnUse" id="linearGradient2690" x1="36.015099" x2="55.2976" y1="53.358898" y2="72.641403">
      <stop id="stop2660" offset="0" style="stop-color:#F082B0"/>
      <stop id="stop2662" offset="1" style="stop-color:#E85290"/>
    </linearGradient>
    <linearGradient gradientUnits="userSpaceOnUse" id="linearGradient3698" inkscape:collect="always" x1="239" x2="288.99405" xlink:href="#linearGradient8888" y1="-76.658363" y2="22.65362"/>
    <linearGradient gradientUnits="userSpaceOnUse" id="linearGradient2709" inkscape:collect="always" x1="239" x2="288.99405" xlink:href="#linearGradient8888" y1="-76.658363" y2="22.65362"/>
    <linearGradient gradientUnits="userSpaceOnUse" id="linearGradient8916" inkscape:collect="always" x1="239" x2="288.99405" xlink:href="#linearGradient8888" y1="-76.658363" y2="22.65362"/>
    <linearGradient gradientTransform="matrix(1.2153376,0,0,1.2153376,-48.873876,10.504372)" gradientUnits="userSpaceOnUse" id="linearGradient8906" inkscape:collect="always" x1="239" x2="288.99405" xlink:href="#linearGradient8888" y1="-76.658363" y2="22.65362"/>
    <linearGradient gradientUnits="userSpaceOnUse" id="linearGradient8904" inkscape:collect="always" x1="239" x2="288.99405" xlink:href="#linearGradient8888" y1="-76.658363" y2="22.65362"/>
    <linearGradient gradientUnits="userSpaceOnUse" id="linearGradient8902" inkscape:collect="always" x1="239" x2="288.99405" xlink:href="#linearGradient8888" y1="-76.658363" y2="22.65362"/>
    <radialGradient cx="102" cy="112.3047" gradientTransform="matrix(1,0,0,0.9996653,208.74355,-1.2680691)" gradientUnits="userSpaceOnUse" id="radialGradient6878" inkscape:collect="always" r="139.55859" xlink:href="#XMLID_8_"/>
    <linearGradient gradientUnits="userSpaceOnUse" id="linearGradient6874" inkscape:collect="always" x1="98.617439" x2="91.228737" xlink:href="#linearGradient10207" y1="106.41443" y2="99.254974"/>
    <linearGradient gradientTransform="translate(-143,-64)" gradientUnits="userSpaceOnUse" id="linearGradient6294" inkscape:collect="always" x1="154.1006" x2="151.9005" xlink:href="#XMLID_68_" y1="79.1006" y2="76.9005"/>
    <linearGradient gradientTransform="translate(-143,-64)" gradientUnits="userSpaceOnUse" id="linearGradient6292" inkscape:collect="always" x1="153" x2="153" xlink:href="#XMLID_67_" y1="79.5566" y2="76.4442"/>
    <linearGradient gradientTransform="translate(-143,-64)" gradientUnits="userSpaceOnUse" id="linearGradient6290" inkscape:collect="always" x1="154.1006" x2="151.9005" xlink:href="#XMLID_66_" y1="87.1006" y2="84.9005"/>
    <linearGradient gradientTransform="translate(-143,-64)" gradientUnits="userSpaceOnUse" id="linearGradient6288" inkscape:collect="always" x1="153" x2="153" xlink:href="#XMLID_65_" y1="87.5566" y2="84.4442"/>
    <linearGradient gradientTransform="translate(-143,-64)" gradientUnits="userSpaceOnUse" id="linearGradient6286" inkscape:collect="always" x1="154.1006" x2="151.9005" xlink:href="#XMLID_64_" y1="95.1006" y2="92.9005"/>
    <linearGradient gradientTransform="translate(-143,-64)" gradientUnits="userSpaceOnUse" id="linearGradient6284" inkscape:collect="always" x1="153" x2="153" xlink:href="#XMLID_63_" y1="95.5566" y2="92.4442"/>
    <linearGradient gradientTransform="translate(-143,-64)" gradientUnits="userSpaceOnUse" id="linearGradient6282" inkscape:collect="always" x1="154.1006" x2="151.9005" xlink:href="#XMLID_62_" y1="103.1006" y2="100.9005"/>
    <linearGradient gradientTransform="translate(-143,-64)" gradientUnits="userSpaceOnUse" id="linearGradient6280" inkscape:collect="always" x1="153" x2="153" xlink:href="#XMLID_61_" y1="103.5566" y2="100.4442"/>
    <linearGradient gradientTransform="translate(-143,-64)" gradientUnits="userSpaceOnUse" id="linearGradient6278" inkscape:collect="always" x1="154.1006" x2="151.9005" xlink:href="#XMLID_60_" y1="111.1006" y2="108.9005"/>
    <linearGradient gradientTransform="translate(-143,-64)" gradientUnits="userSpaceOnUse" id="linearGradient6276" inkscape:collect="always" x1="153" x2="153" xlink:href="#XMLID_59_" y1="111.5566" y2="108.4442"/>
    <linearGradient gradientTransform="translate(-143,-64)" gradientUnits="userSpaceOnUse" id="linearGradient6274" inkscape:collect="always" x1="154.1006" x2="151.9005" xlink:href="#XMLID_58_" y1="119.1006" y2="116.9005"/>
    <linearGradient gradientTransform="translate(-143,-64)" gradientUnits="userSpaceOnUse" id="linearGradient6272" inkscape:collect="always" x1="153" x2="153" xlink:href="#XMLID_57_" y1="119.5566" y2="116.4442"/>
    <linearGradient gradientTransform="translate(-143,-64)" gradientUnits="userSpaceOnUse" id="linearGradient6270" inkscape:collect="always" x1="154.1006" x2="151.9005" xlink:href="#XMLID_56_" y1="127.1006" y2="124.9005"/>
    <linearGradient gradientTransform="translate(-143,-64)" gradientUnits="userSpaceOnUse" id="linearGradient6268" inkscape:collect="always" x1="153" x2="153" xlink:href="#XMLID_55_" y1="127.5566" y2="124.4442"/>
    <linearGradient gradientTransform="translate(-143,-64)" gradientUnits="userSpaceOnUse" id="linearGradient6266" inkscape:collect="always" x1="154.1006" x2="151.9005" xlink:href="#XMLID_54_" y1="135.1006" y2="132.9005"/>
    <linearGradient gradientTransform="translate(-143,-64)" gradientUnits="userSpaceOnUse" id="linearGradient6264" inkscape:collect="always" x1="153" x2="153" xlink:href="#XMLID_53_" y1="135.5566" y2="132.4442"/>
    <linearGradient gradientTransform="translate(-143,-64)" gradientUnits="userSpaceOnUse" id="linearGradient6262" inkscape:collect="always" x1="154.1006" x2="151.9005" xlink:href="#XMLID_52_" y1="143.1006" y2="140.9005"/>
    <linearGradient gradientTransform="translate(-143,-64)" gradientUnits="userSpaceOnUse" id="linearGradient6260" inkscape:collect="always" x1="153" x2="153" xlink:href="#XMLID_51_" y1="143.5566" y2="140.4442"/>
    <linearGradient gradientTransform="translate(-143,-64)" gradientUnits="userSpaceOnUse" id="linearGradient6258" inkscape:collect="always" x1="154.1006" x2="151.9005" xlink:href="#XMLID_50_" y1="151.1006" y2="148.9005"/>
    <linearGradient gradientTransform="translate(-143,-64)" gradientUnits="userSpaceOnUse" id="linearGradient6256" inkscape:collect="always" x1="153" x2="153" xlink:href="#XMLID_49_" y1="151.5566" y2="148.4442"/>
    <linearGradient gradientTransform="translate(-143,-64)" gradientUnits="userSpaceOnUse" id="linearGradient6254" inkscape:collect="always" x1="154.1006" x2="151.9005" xlink:href="#XMLID_48_" y1="159.1006" y2="156.9005"/>
    <linearGradient gradientTransform="translate(-143,-64)" gradientUnits="userSpaceOnUse" id="linearGradient6252" inkscape:collect="always" x1="153" x2="153" xlink:href="#XMLID_47_" y1="159.5566" y2="156.4442"/>
    <linearGradient gradientTransform="translate(-143,-64)" gradientUnits="userSpaceOnUse" id="linearGradient6250" inkscape:collect="always" x1="154.1006" x2="151.9005" xlink:href="#XMLID_46_" y1="167.1006" y2="164.9005"/>
    <linearGradient gradientTransform="translate(-143,-64)" gradientUnits="userSpaceOnUse" id="linearGradient6248" inkscape:collect="always" x1="153" x2="153" xlink:href="#XMLID_45_" y1="167.5566" y2="164.4442"/>
    <linearGradient gradientTransform="translate(-143,-64)" gradientUnits="userSpaceOnUse" id="linearGradient6246" inkscape:collect="always" x1="154.1006" x2="151.9005" xlink:href="#XMLID_44_" y1="175.1006" y2="172.9005"/>
    <linearGradient gradientTransform="translate(-143,-64)" gradientUnits="userSpaceOnUse" id="linearGradient6244" inkscape:collect="always" x1="153" x2="153" xlink:href="#XMLID_43_" y1="175.5566" y2="172.4442"/>
    <linearGradient gradientTransform="translate(0,14.999998)" gradientUnits="userSpaceOnUse" id="linearGradient6242" inkscape:collect="always" x1="28" x2="16" xlink:href="#XMLID_42_" y1="24.4585" y2="24.4585"/>
    <linearGradient gradientTransform="matrix(1,0,0,0.8052348,0,20.534641)" gradientUnits="userSpaceOnUse" id="linearGradient6240" inkscape:collect="always" x1="28" x2="16" xlink:href="#XMLID_41_" y1="68.208" y2="68.208"/>
    <linearGradient gradientTransform="translate(0,14.999998)" gradientUnits="userSpaceOnUse" id="linearGradient6238" inkscape:collect="always" x1="68.209" x2="68.209" xlink:href="#XMLID_40_" y1="12" y2="20"/>
    <linearGradient gradientTransform="translate(0,14.999998)" gradientUnits="userSpaceOnUse" id="linearGradient6236" inkscape:collect="always" x1="60.125" x2="60.125" xlink:href="#XMLID_39_" y1="12" y2="20"/>
    <radialGradient cx="102" cy="112.3047" gradientTransform="matrix(1,0,0,0.9996653,311,-456.49698)" gradientUnits="userSpaceOnUse" id="radialGradient2696" inkscape:collect="always" r="139.55859" xlink:href="#XMLID_8_"/>
    <radialGradient cx="102" cy="112.3047" gradientUnits="userSpaceOnUse" id="radialGradient2680" r="139.55859">
      <stop id="stop2682" offset="0" style="stop-color:#b7b8b9;stop-opacity:1;"/>
      <stop id="stop2684" offset="0.18851049" style="stop-color:#ECECEC"/>
      <stop id="stop2686" offset="0.25718147" style="stop-color:#FAFAFA"/>
      <stop id="stop2688" offset="0.30111277" style="stop-color:#FFFFFF"/>
      <stop id="stop2690" offset="0.5313" style="stop-color:#FAFAFA"/>
      <stop id="stop2692" offset="0.8449" style="stop-color:#EBECEC"/>
      <stop id="stop2694" offset="1" style="stop-color:#E1E2E3"/>
    </radialGradient>
    <clipPath clipPathUnits="userSpaceOnUse" id="clipPath2676">
      <path d="M 72,88 L 40,120 L 32,120 L 32,80 L 72,80 L 72,88 z" id="path2678" style="fill:#000000;fill-opacity:1;fill-rule:evenodd;stroke:none;stroke-width:1px;stroke-linecap:butt;stroke-linejoin:miter;stroke-opacity:1"/>
    </clipPath>
    <linearGradient gradientTransform="translate(311,-456.5)" gradientUnits="userSpaceOnUse" id="linearGradient2670" inkscape:collect="always" x1="98.617439" x2="91.228737" xlink:href="#linearGradient10207" y1="106.41443" y2="99.254974"/>
    <linearGradient id="linearGradient2663">
      <stop id="stop2665" offset="0" style="stop-color:#a2a2a2;stop-opacity:1;"/>
      <stop id="stop2668" offset="1" style="stop-color:#ffffff;stop-opacity:1;"/>
    </linearGradient>
    <linearGradient gradientUnits="userSpaceOnUse" id="XMLID_39_" x1="60.125" x2="60.125" y1="12" y2="20">
      <stop id="stop62" offset="0" style="stop-color:#A3C8FF"/>
      <stop id="stop64" offset="1" style="stop-color:#BFD9FF"/>
    </linearGradient>
    <linearGradient gradientUnits="userSpaceOnUse" id="XMLID_40_" x1="68.209" x2="68.209" y1="12" y2="20">
      <stop id="stop69" offset="0" style="stop-color:#E0E0E0"/>
      <stop id="stop71" offset="1" style="stop-color:#D4D4D4"/>
    </linearGradient>
    <linearGradient gradientUnits="userSpaceOnUse" id="XMLID_41_" x1="28" x2="16" y1="68.208" y2="68.208">
      <stop id="stop76" offset="0" style="stop-color:#E0E0E0"/>
      <stop id="stop78" offset="1" style="stop-color:#D4D4D4"/>
    </linearGradient>
    <linearGradient gradientUnits="userSpaceOnUse" id="XMLID_42_" x1="28" x2="16" y1="24.4585" y2="24.4585">
      <stop id="stop2650" offset="0" style="stop-color:#A3C8FF"/>
      <stop id="stop2652" offset="1" style="stop-color:#BFD9FF"/>
    </linearGradient>
    <linearGradient gradientTransform="translate(-143,-64)" gradientUnits="userSpaceOnUse" id="XMLID_43_" x1="153" x2="153" y1="175.5566" y2="172.4442">
      <stop id="stop92" offset="0" style="stop-color:#FFFFFF"/>
      <stop id="stop94" offset="1" style="stop-color:#DDDDDD"/>
    </linearGradient>
    <linearGradient gradientTransform="translate(-143,-64)" gradientUnits="userSpaceOnUse" id="XMLID_44_" x1="154.1006" x2="151.9005" y1="175.1006" y2="172.9005">
      <stop id="stop2643" offset="0" style="stop-color:#BBBBBB"/>
      <stop id="stop101" offset="1" style="stop-color:#616161"/>
    </linearGradient>
    <linearGradient gradientTransform="translate(-143,-64)" gradientUnits="userSpaceOnUse" id="XMLID_45_" x1="153" x2="153" y1="167.5566" y2="164.4442">
      <stop id="stop108" offset="0" style="stop-color:#FFFFFF"/>
      <stop id="stop110" offset="1" style="stop-color:#DDDDDD"/>
    </linearGradient>
    <linearGradient gradientTransform="translate(-143,-64)" gradientUnits="userSpaceOnUse" id="XMLID_46_" x1="154.1006" x2="151.9005" y1="167.1006" y2="164.9005">
      <stop id="stop115" offset="0" style="stop-color:#BBBBBB"/>
      <stop id="stop117" offset="1" style="stop-color:#616161"/>
    </linearGradient>
    <linearGradient gradientTransform="translate(-143,-64)" gradientUnits="userSpaceOnUse" id="XMLID_47_" x1="153" x2="153" y1="159.5566" y2="156.4442">
      <stop id="stop124" offset="0" style="stop-color:#FFFFFF"/>
      <stop id="stop126" offset="1" style="stop-color:#DDDDDD"/>
    </linearGradient>
    <linearGradient gradientTransform="translate(-143,-64)" gradientUnits="userSpaceOnUse" id="XMLID_48_" x1="154.1006" x2="151.9005" y1="159.1006" y2="156.9005">
      <stop id="stop131" offset="0" style="stop-color:#BBBBBB"/>
      <stop id="stop133" offset="1" style="stop-color:#616161"/>
    </linearGradient>
    <linearGradient gradientTransform="translate(-143,-64)" gradientUnits="userSpaceOnUse" id="XMLID_49_" x1="153" x2="153" y1="151.5566" y2="148.4442">
      <stop id="stop140" offset="0" style="stop-color:#FFFFFF"/>
      <stop id="stop142" offset="1" style="stop-color:#DDDDDD"/>
    </linearGradient>
    <linearGradient gradientTransform="translate(-143,-64)" gradientUnits="userSpaceOnUse" id="XMLID_50_" x1="154.1006" x2="151.9005" y1="151.1006" y2="148.9005">
      <stop id="stop147" offset="0" style="stop-color:#BBBBBB"/>
      <stop id="stop149" offset="1" style="stop-color:#616161"/>
    </linearGradient>
    <linearGradient gradientTransform="translate(-143,-64)" gradientUnits="userSpaceOnUse" id="XMLID_51_" x1="153" x2="153" y1="143.5566" y2="140.4442">
      <stop id="stop156" offset="0" style="stop-color:#FFFFFF"/>
      <stop id="stop158" offset="1" style="stop-color:#DDDDDD"/>
    </linearGradient>
    <linearGradient gradientTransform="translate(-143,-64)" gradientUnits="userSpaceOnUse" id="XMLID_52_" x1="154.1006" x2="151.9005" y1="143.1006" y2="140.9005">
      <stop id="stop163" offset="0" style="stop-color:#BBBBBB"/>
      <stop id="stop165" offset="1" style="stop-color:#616161"/>
    </linearGradient>
    <linearGradient gradientTransform="translate(-143,-64)" gradientUnits="userSpaceOnUse" id="XMLID_53_" x1="153" x2="153" y1="135.5566" y2="132.4442">
      <stop id="stop172" offset="0" style="stop-color:#FFFFFF"/>
      <stop id="stop174" offset="1" style="stop-color:#DDDDDD"/>
    </linearGradient>
    <linearGradient gradientTransform="translate(-143,-64)" gradientUnits="userSpaceOnUse" id="XMLID_54_" x1="154.1006" x2="151.9005" y1="135.1006" y2="132.9005">
      <stop id="stop179" offset="0" style="stop-color:#BBBBBB"/>
      <stop id="stop181" offset="1" style="stop-color:#616161"/>
    </linearGradient>
    <linearGradient gradientTransform="translate(-143,-64)" gradientUnits="userSpaceOnUse" id="XMLID_55_" x1="153" x2="153" y1="127.5566" y2="124.4442">
      <stop id="stop188" offset="0" style="stop-color:#FFFFFF"/>
      <stop id="stop190" offset="1" style="stop-color:#DDDDDD"/>
    </linearGradient>
    <linearGradient gradientTransform="translate(-143,-64)" gradientUnits="userSpaceOnUse" id="XMLID_56_" x1="154.1006" x2="151.9005" y1="127.1006" y2="124.9005">
      <stop id="stop195" offset="0" style="stop-color:#BBBBBB"/>
      <stop id="stop197" offset="1" style="stop-color:#616161"/>
    </linearGradient>
    <linearGradient gradientTransform="translate(-143,-64)" gradientUnits="userSpaceOnUse" id="XMLID_57_" x1="153" x2="153" y1="119.5566" y2="116.4442">
      <stop id="stop204" offset="0" style="stop-color:#FFFFFF"/>
      <stop id="stop206" offset="1" style="stop-color:#DDDDDD"/>
    </linearGradient>
    <linearGradient gradientTransform="translate(-143,-64)" gradientUnits="userSpaceOnUse" id="XMLID_58_" x1="154.1006" x2="151.9005" y1="119.1006" y2="116.9005">
      <stop id="stop211" offset="0" style="stop-color:#BBBBBB"/>
      <stop id="stop213" offset="1" style="stop-color:#616161"/>
    </linearGradient>
    <linearGradient gradientTransform="translate(-143,-64)" gradientUnits="userSpaceOnUse" id="XMLID_59_" x1="153" x2="153" y1="111.5566" y2="108.4442">
      <stop id="stop220" offset="0" style="stop-color:#FFFFFF"/>
      <stop id="stop222" offset="1" style="stop-color:#DDDDDD"/>
    </linearGradient>
    <linearGradient gradientTransform="translate(-143,-64)" gradientUnits="userSpaceOnUse" id="XMLID_60_" x1="154.1006" x2="151.9005" y1="111.1006" y2="108.9005">
      <stop id="stop227" offset="0" style="stop-color:#BBBBBB"/>
      <stop id="stop229" offset="1" style="stop-color:#616161"/>
    </linearGradient>
    <linearGradient gradientTransform="translate(-143,-64)" gradientUnits="userSpaceOnUse" id="XMLID_61_" x1="153" x2="153" y1="103.5566" y2="100.4442">
      <stop id="stop236" offset="0" style="stop-color:#FFFFFF"/>
      <stop id="stop238" offset="1" style="stop-color:#DDDDDD"/>
    </linearGradient>
    <linearGradient gradientTransform="translate(-143,-64)" gradientUnits="userSpaceOnUse" id="XMLID_62_" x1="154.1006" x2="151.9005" y1="103.1006" y2="100.9005">
      <stop id="stop243" offset="0" style="stop-color:#BBBBBB"/>
      <stop id="stop245" offset="1" style="stop-color:#616161"/>
    </linearGradient>
    <linearGradient gradientTransform="translate(-143,-64)" gradientUnits="userSpaceOnUse" id="XMLID_63_" x1="153" x2="153" y1="95.5566" y2="92.4442">
      <stop id="stop252" offset="0" style="stop-color:#FFFFFF"/>
      <stop id="stop254" offset="1" style="stop-color:#DDDDDD"/>
    </linearGradient>
    <linearGradient gradientTransform="translate(-143,-64)" gradientUnits="userSpaceOnUse" id="XMLID_64_" x1="154.1006" x2="151.9005" y1="95.1006" y2="92.9005">
      <stop id="stop259" offset="0" style="stop-color:#BBBBBB"/>
      <stop id="stop261" offset="1" style="stop-color:#616161"/>
    </linearGradient>
    <linearGradient gradientTransform="translate(-143,-64)" gradientUnits="userSpaceOnUse" id="XMLID_65_" x1="153" x2="153" y1="87.5566" y2="84.4442">
      <stop id="stop268" offset="0" style="stop-color:#FFFFFF"/>
      <stop id="stop270" offset="1" style="stop-color:#DDDDDD"/>
    </linearGradient>
    <linearGradient gradientTransform="translate(-143,-64)" gradientUnits="userSpaceOnUse" id="XMLID_66_" x1="154.1006" x2="151.9005" y1="87.1006" y2="84.9005">
      <stop id="stop275" offset="0" style="stop-color:#BBBBBB"/>
      <stop id="stop277" offset="1" style="stop-color:#616161"/>
    </linearGradient>
    <linearGradient gradientTransform="translate(-143,-64)" gradientUnits="userSpaceOnUse" id="XMLID_67_" x1="153" x2="153" y1="79.5566" y2="76.4442">
      <stop id="stop284" offset="0" style="stop-color:#FFFFFF"/>
      <stop id="stop286" offset="1" style="stop-color:#DDDDDD"/>
    </linearGradient>
    <linearGradient gradientTransform="translate(-143,-64)" gradientUnits="userSpaceOnUse" id="XMLID_68_" x1="154.1006" x2="151.9005" y1="79.1006" y2="76.9005">
      <stop id="stop291" offset="0" style="stop-color:#BBBBBB"/>
      <stop id="stop293" offset="1" style="stop-color:#616161"/>
    </linearGradient>
    <linearGradient id="linearGradient8888">
      <stop id="stop8890" offset="0" style="stop-color:#000000;stop-opacity:1;"/>
      <stop id="stop8892" offset="1" style="stop-color:#818181;stop-opacity:1;"/>
    </linearGradient>
    <linearGradient gradientTransform="matrix(0.9461857,0,0,0.3693188,5.9124731,32.380157)" gradientUnits="userSpaceOnUse" id="XMLID_9_" x1="54.5298" x2="72.4671" y1="54.0244" y2="71.9617">
      <stop id="stop2667" offset="0" style="stop-color:#F082B0"/>
      <stop id="stop2669" offset="1" style="stop-color:#E85290"/>
    </linearGradient>
    <linearGradient gradientUnits="userSpaceOnUse" id="XMLID_10_" x1="72.7031" x2="91.9856" y1="53.3589" y2="72.6414">
      <stop id="stop2674" offset="0" style="stop-color:#F082B0"/>
      <stop id="stop2676" offset="1" style="stop-color:#E85290"/>
    </linearGradient>
    <linearGradient gradientTransform="translate(220.74355,17.728909)" gradientUnits="userSpaceOnUse" id="linearGradient3101" inkscape:collect="always" x1="28" x2="16" xlink:href="#XMLID_42_" y1="24.4585" y2="24.4585"/>
    <linearGradient gradientTransform="matrix(1,0,0,0.8052348,220.74355,23.263552)" gradientUnits="userSpaceOnUse" id="linearGradient3104" inkscape:collect="always" x1="28" x2="16" xlink:href="#XMLID_41_" y1="68.208" y2="68.208"/>
    <linearGradient gradientTransform="translate(109.84863,56)" gradientUnits="userSpaceOnUse" id="linearGradient8165" inkscape:collect="always" x1="85.455536" x2="110.38672" xlink:href="#linearGradient3206" y1="62.643799" y2="62.643799"/>
    <linearGradient gradientTransform="translate(109.84863,56)" gradientUnits="userSpaceOnUse" id="linearGradient8167" inkscape:collect="always" x1="85.455536" x2="110.38672" xlink:href="#linearGradient3206" y1="62.643799" y2="62.643799"/>
    <linearGradient gradientTransform="translate(109.88525,56)" gradientUnits="userSpaceOnUse" id="linearGradient8169" inkscape:collect="always" x1="85.455536" x2="110.38672" xlink:href="#linearGradient3206" y1="62.643799" y2="62.643799"/>
    <linearGradient gradientTransform="translate(110.12451,56)" gradientUnits="userSpaceOnUse" id="linearGradient8171" inkscape:collect="always" x1="85.455536" x2="110.38672" xlink:href="#linearGradient3206" y1="62.643799" y2="62.643799"/>
    <linearGradient gradientTransform="translate(109.84863,56)" gradientUnits="userSpaceOnUse" id="linearGradient8173" inkscape:collect="always" x1="85.455536" x2="110.38672" xlink:href="#linearGradient3206" y1="62.643799" y2="62.643799"/>
    <linearGradient gradientTransform="translate(110,56)" gradientUnits="userSpaceOnUse" id="linearGradient8175" inkscape:collect="always" x1="85.455536" x2="110.38672" xlink:href="#linearGradient3206" y1="62.643799" y2="62.643799"/>
    <filter id="filter9154" inkscape:collect="always">
      <feGaussianBlur id="feGaussianBlur9156" inkscape:collect="always" stdDeviation="0.63999998"/>
    </filter>
    <linearGradient gradientTransform="translate(10,0)" gradientUnits="userSpaceOnUse" id="linearGradient9162" inkscape:collect="always" x1="98.617439" x2="91.228737" xlink:href="#linearGradient10207" y1="106.41443" y2="99.254974"/>
  </defs>
  <sodipodi:namedview bordercolor="#666666" borderopacity="1.0" gridempspacing="2" gridspacingx="4px" gridspacingy="4px" height="128px" id="base" inkscape:current-layer="layer1" inkscape:cx="64.78418" inkscape:cy="64" inkscape:document-units="px" inkscape:grid-points="true" inkscape:guide-bbox="true" inkscape:pageopacity="0.0" inkscape:pageshadow="2" inkscape:window-height="692" inkscape:window-width="794" inkscape:window-x="18" inkscape:window-y="4" inkscape:zoom="2" pagecolor="#ffffff" showgrid="false" showguides="true" width="128px"/>
  <g id="layer1" inkscape:groupmode="layer" inkscape:label="Livello 1">
    <path d="M 16,8 L 16,120 C 16,120 79.15625,120 79.15625,120 L 79.1875,120 C 79.187503,120 91.09375,110.09375 96.59375,104.59375 C 102.09375,99.09375 112,87.1875 112,87.1875 L 112,87.15625 L 112,8 L 16,8 z" id="path7865" sodipodi:nodetypes="csccscccc" style="opacity:0.5;fill:#000000;fill-opacity:1;filter:url(#filter2770)" transform="matrix(1.0416667,0,0,1.0267857,-2.6666667,-1.2142891)"/>
    <path d="M 16.000001,8 L 16,120 C 16,120 79.146418,120 79.146418,120 L 112,87.14642 L 112,8 L 16.000001,8 z" id="path34" sodipodi:nodetypes="cccccc" style="fill:#ffffff;fill-opacity:1"/>
    <path d="M 18.000002,9.0000034 C 17.449002,9.0000034 17.000002,9.4488534 17.000002,9.9996684 L 17.000002,117.96352 C 17.000002,118.51533 17.449002,118.96318 18.000002,118.96318 L 77.171999,118.96318 C 77.434999,118.96318 79.934679,119.08131 80.12068,118.89438 L 110.707,88.094202 C 110.894,87.907264 111,85.40942 111,85.146508 L 111,9.9996684 C 111,9.4488534 110.552,9.0000034 110,9.0000034 L 18.000002,9.0000034 z" id="path59" sodipodi:nodetypes="ccccccccccc" style="fill:url(#radialGradient9437);fill-opacity:1"/>
    <g id="g5702" style="opacity:0.7" transform="translate(-110,3.2789062e-3)">
      <text id="text2489" sodipodi:linespacing="100%" space="preserve" style="font-size:5px;font-style:normal;font-variant:normal;font-weight:normal;font-stretch:normal;text-align:start;line-height:100%;writing-mode:lr-tb;text-anchor:start;opacity:1;fill:url(#linearGradient5730);fill-opacity:1;stroke:none;stroke-width:1px;stroke-linecap:butt;stroke-linejoin:miter;stroke-opacity:1;font-family:Liberation Mono" x="133.7168" y="15.936523">
        <tspan id="tspan2491" sodipodi:role="line" style="fill:url(#linearGradient5730)" x="133.7168" y="15.936523">&lt;?xml version="1.0" encoding=</tspan>
      </text>
      <text id="text2493" sodipodi:linespacing="100%" space="preserve" style="font-size:5px;font-style:normal;font-variant:normal;font-weight:normal;font-stretch:normal;text-align:start;line-height:100%;writing-mode:lr-tb;text-anchor:start;opacity:1;fill:url(#linearGradient5732);fill-opacity:1;stroke:none;stroke-width:1px;stroke-linecap:butt;stroke-linejoin:miter;stroke-opacity:1;font-family:Liberation Mono" x="133.7168" y="27.936523">
        <tspan id="tspan2495" sodipodi:role="line" style="fill:url(#linearGradient5732)" x="133.7168" y="27.936523">&lt;note></tspan>
      </text>
      <text id="text2497" sodipodi:linespacing="100%" space="preserve" style="font-size:5px;font-style:normal;font-variant:normal;font-weight:normal;font-stretch:normal;text-align:start;line-height:100%;writing-mode:lr-tb;text-anchor:start;opacity:1;fill:url(#linearGradient5734);fill-opacity:1;stroke:none;stroke-width:1px;stroke-linecap:butt;stroke-linejoin:miter;stroke-opacity:1;font-family:Liberation Mono" x="133.7168" y="35.936523">
        <tspan id="tspan2499" sodipodi:role="line" style="fill:url(#linearGradient5734)" x="133.7168" y="35.936523">&lt;to>Geeks&lt;/to></tspan>
      </text>
      <text id="text2505" sodipodi:linespacing="100%" space="preserve" style="font-size:5px;font-style:normal;font-variant:normal;font-weight:normal;font-stretch:normal;text-align:start;line-height:100%;writing-mode:lr-tb;text-anchor:start;opacity:1;fill:url(#linearGradient5736);fill-opacity:1;stroke:none;stroke-width:1px;stroke-linecap:butt;stroke-linejoin:miter;stroke-opacity:1;font-family:Liberation Mono" x="141.7168" y="43.936523">
        <tspan id="tspan2507" sodipodi:role="line" style="fill:url(#linearGradient5736)" x="141.7168" y="43.936523">&lt;from>David&lt;/from></tspan>
      </text>
      <text id="text2509" sodipodi:linespacing="100%" space="preserve" style="font-size:5px;font-style:normal;font-variant:normal;font-weight:normal;font-stretch:normal;text-align:start;line-height:100%;writing-mode:lr-tb;text-anchor:start;opacity:1;fill:url(#linearGradient5738);fill-opacity:1;stroke:none;stroke-width:1px;stroke-linecap:butt;stroke-linejoin:miter;stroke-opacity:1;font-family:Liberation Mono" x="133.7168" y="51.936523">
        <tspan id="tspan2511" sodipodi:role="line" style="fill:url(#linearGradient5738)" x="133.7168" y="51.936523">&lt;heading>Reminder&lt;/heading></tspan>
      </text>
      <text id="text2513" sodipodi:linespacing="100%" space="preserve" style="font-size:5px;font-style:normal;font-variant:normal;font-weight:normal;font-stretch:normal;text-align:start;line-height:100%;writing-mode:lr-tb;text-anchor:start;opacity:1;fill:url(#linearGradient5740);fill-opacity:1;stroke:none;stroke-width:1px;stroke-linecap:butt;stroke-linejoin:miter;stroke-opacity:1;font-family:Liberation Mono" x="133.7168" y="59.936523">
        <tspan id="tspan2515" sodipodi:role="line" style="fill:url(#linearGradient5740)" x="133.7168" y="59.936523">&lt;body>This is not real code</tspan>
      </text>
      <text id="text2519" sodipodi:linespacing="100%" space="preserve" style="font-size:5px;font-style:normal;font-variant:normal;font-weight:normal;font-stretch:normal;text-align:start;line-height:100%;writing-mode:lr-tb;text-anchor:start;opacity:1;fill:url(#linearGradient5742);fill-opacity:1;stroke:none;stroke-width:1px;stroke-linecap:butt;stroke-linejoin:miter;stroke-opacity:1;font-family:Liberation Mono" x="133.7168" y="67.936523">
        <tspan id="tspan2521" sodipodi:role="line" style="fill:url(#linearGradient5742)" x="133.7168" y="67.936523">&lt;/note></tspan>
      </text>
      <text id="text8129" sodipodi:linespacing="100%" space="preserve" style="font-size:5px;font-style:normal;font-variant:normal;font-weight:normal;font-stretch:normal;text-align:start;line-height:100%;writing-mode:lr-tb;text-anchor:start;opacity:1;fill:url(#linearGradient8165);fill-opacity:1;stroke:none;stroke-width:1px;stroke-linecap:butt;stroke-linejoin:miter;stroke-opacity:1;font-family:Liberation Mono" x="133.7168" y="79.936523">
        <tspan id="tspan8131" sodipodi:role="line" style="fill:url(#linearGradient8165)" x="133.7168" y="79.936523">&lt;note></tspan>
      </text>
      <text id="text8133" sodipodi:linespacing="100%" space="preserve" style="font-size:5px;font-style:normal;font-variant:normal;font-weight:normal;font-stretch:normal;text-align:start;line-height:100%;writing-mode:lr-tb;text-anchor:start;opacity:1;fill:url(#linearGradient8167);fill-opacity:1;stroke:none;stroke-width:1px;stroke-linecap:butt;stroke-linejoin:miter;stroke-opacity:1;font-family:Liberation Mono" x="133.7168" y="87.936523">
        <tspan id="tspan8135" sodipodi:role="line" style="fill:url(#linearGradient8167)" x="133.7168" y="87.936523">&lt;to>Oxygen team&lt;/to></tspan>
      </text>
      <text id="text8137" sodipodi:linespacing="100%" space="preserve" style="font-size:5px;font-style:normal;font-variant:normal;font-weight:normal;font-stretch:normal;text-align:start;line-height:100%;writing-mode:lr-tb;text-anchor:start;opacity:1;fill:url(#linearGradient8169);fill-opacity:1;stroke:none;stroke-width:1px;stroke-linecap:butt;stroke-linejoin:miter;stroke-opacity:1;font-family:Liberation Mono" x="141.7168" y="95.936523">
        <tspan id="tspan8139" sodipodi:role="line" style="fill:url(#linearGradient8169)" x="141.7168" y="95.936523">&lt;from>David&lt;/from></tspan>
      </text>
      <text id="text8141" sodipodi:linespacing="100%" space="preserve" style="font-size:5px;font-style:normal;font-variant:normal;font-weight:normal;font-stretch:normal;text-align:start;line-height:100%;writing-mode:lr-tb;text-anchor:start;opacity:1;fill:url(#linearGradient8171);fill-opacity:1;stroke:none;stroke-width:1px;stroke-linecap:butt;stroke-linejoin:miter;stroke-opacity:1;font-family:Liberation Mono" x="133.7168" y="103.93652">
        <tspan id="tspan8143" sodipodi:role="line" style="fill:url(#linearGradient8171)" x="133.7168" y="103.93652">&lt;heading>Thanks&lt;/heading></tspan>
      </text>
      <text id="text8145" sodipodi:linespacing="100%" space="preserve" style="font-size:5px;font-style:normal;font-variant:normal;font-weight:normal;font-stretch:normal;text-align:start;line-height:100%;writing-mode:lr-tb;text-anchor:start;opacity:1;fill:url(#linearGradient8173);fill-opacity:1;stroke:none;stroke-width:1px;stroke-linecap:butt;stroke-linejoin:miter;stroke-opacity:1;font-family:Liberation Mono" x="133.7168" y="111.93652">
        <tspan id="tspan8147" sodipodi:role="line" style="fill:url(#linearGradient8173)" x="133.7168" y="111.93652">&lt;body>thx for the har</tspan>
      </text>
    </g>
    <g id="g4732" transform="matrix(1.6207689,0,0,1.6207689,-39.729213,31.584622)">
      <path d="M 52.000002,28 L 40.000002,21.36322 L 40.000002,18.637299 L 52.000002,12.000519 L 52.000002,15.432835 L 43.613742,20.008045 L 52.000002,24.567684 L 52.000002,28 z " id="path2664" style="fill:url(#radialGradient4578);fill-opacity:1"/>
      <path d="M 88,21.36322 L 76,28 L 76,24.567684 L 84.372229,20.00026 L 76,15.432835 L 76,12 L 88,18.637299 L 88,21.36322 z " id="path2945" style="fill:url(#linearGradient4575);fill-opacity:1"/>
      <path d="M 72,12 L 60.463158,28 L 56,28 L 67.512241,12 L 72,12 z " id="path2671" style="fill:url(#linearGradient4361)"/>
    </g>
    <g id="g9158" transform="translate(-10,0)">
      <path clip-path="url(#clipPath7084)" d="M 41.879531,115.98249 C 41.879531,115.98249 66.18914,91.672876 66.18914,91.672876 C 66.18914,91.672876 56.836,94.586 46.586,94.586 C 46.586,104.836 41.879531,115.98249 41.879531,115.98249 z " id="path5540" sodipodi:nodetypes="cccc" style="opacity:0.4;fill:#000000;fill-opacity:1;filter:url(#filter6697)" transform="translate(50,0)"/>
      <path d="M 89.172,120 C 89.172,120 101.086,110.086 106.586,104.586 C 112.086,99.086 122,87.172 122,87.172 C 122,87.172 108.25,96 98,96 C 98,106.25 89.172,120 89.172,120 z " id="path14523" sodipodi:nodetypes="csccc" style="fill:url(#linearGradient9162);fill-opacity:1"/>
    </g>
  </g>
</svg>
